<?xml version="1.0" encoding="UTF-8" standalone="no"?>
<svg
   width="640"
   height="400"
   viewBox="0 0 640 400"
   version="1.1"
   id="svg523"
   sodipodi:docname="ball_14c_0.svg"
   inkscape:version="1.1 (c4e8f9ed74, 2021-05-24)"
   xmlns:inkscape="http://www.inkscape.org/namespaces/inkscape"
   xmlns:sodipodi="http://sodipodi.sourceforge.net/DTD/sodipodi-0.dtd"
   xmlns:xlink="http://www.w3.org/1999/xlink"
   xmlns="http://www.w3.org/2000/svg"
   xmlns:svg="http://www.w3.org/2000/svg"
   xmlns:rdf="http://www.w3.org/1999/02/22-rdf-syntax-ns#"
   xmlns:cc="http://creativecommons.org/ns#"
   xmlns:dc="http://purl.org/dc/elements/1.1/">
  <defs
     id="defs527" />
  <sodipodi:namedview
     id="namedview525"
     pagecolor="#ffffff"
     bordercolor="#666666"
     borderopacity="1.0"
     inkscape:pageshadow="2"
     inkscape:pageopacity="0.0"
     inkscape:pagecheckerboard="0"
     showgrid="false"
     inkscape:zoom="1.9453125"
     inkscape:cx="298.15261"
     inkscape:cy="199.96787"
     inkscape:window-width="1920"
     inkscape:window-height="1027"
     inkscape:window-x="0"
     inkscape:window-y="36"
     inkscape:window-maximized="1"
     inkscape:current-layer="gnuplot_canvas" />
  <title
     id="title2">Gnuplot</title>
  <desc
     id="desc4">Produced by GNUPLOT 5.2 patchlevel 5 </desc>
  <g
     id="gnuplot_canvas">
    <rect
       x="0"
       y="0"
       width="640"
       height="400"
       fill="none"
       id="rect6" />
    <defs
       id="defs34">
      <circle
         id="gpDot"
         r="0.5"
         stroke-width="0.5"
         stroke="currentColor" />
      <path
         id="gpPt0"
         stroke-width="0.222"
         stroke="currentColor"
         d="M-1,0 h2 M0,-1 v2" />
      <path
         id="gpPt1"
         stroke-width="0.222"
         stroke="currentColor"
         d="M-1,-1 L1,1 M1,-1 L-1,1" />
      <path
         id="gpPt2"
         stroke-width="0.222"
         stroke="currentColor"
         d="M-1,0 L1,0 M0,-1 L0,1 M-1,-1 L1,1 M-1,1 L1,-1" />
      <rect
         id="gpPt3"
         stroke-width="0.222"
         stroke="currentColor"
         x="-1"
         y="-1"
         width="2"
         height="2" />
      <rect
         id="gpPt4"
         stroke-width="0.222"
         stroke="currentColor"
         fill="currentColor"
         x="-1"
         y="-1"
         width="2"
         height="2" />
      <circle
         id="gpPt5"
         stroke-width="0.222"
         stroke="currentColor"
         cx="0"
         cy="0"
         r="1" />
      <use
         xlink:href="#gpPt5"
         id="gpPt6"
         fill="currentColor"
         stroke="none" />
      <path
         id="gpPt7"
         stroke-width="0.222"
         stroke="currentColor"
         d="M0,-1.33 L-1.33,0.67 L1.33,0.67 z" />
      <use
         xlink:href="#gpPt7"
         id="gpPt8"
         fill="currentColor"
         stroke="none" />
      <use
         xlink:href="#gpPt7"
         id="gpPt9"
         stroke="currentColor"
         transform="rotate(180)" />
      <use
         xlink:href="#gpPt9"
         id="gpPt10"
         fill="currentColor"
         stroke="none" />
      <use
         xlink:href="#gpPt3"
         id="gpPt11"
         stroke="currentColor"
         transform="rotate(45)" />
      <use
         xlink:href="#gpPt11"
         id="gpPt12"
         fill="currentColor"
         stroke="none" />
      <path
         id="gpPt13"
         stroke-width="0.222"
         stroke="currentColor"
         d="M0,1.330 L1.265,0.411 L0.782,-1.067 L-0.782,-1.076 L-1.265,0.411 z" />
      <use
         xlink:href="#gpPt13"
         id="gpPt14"
         fill="currentColor"
         stroke="none" />
      <filter
         id="textbox"
         filterUnits="objectBoundingBox"
         x="0"
         y="0"
         height="1"
         width="1">
        <feFlood
           flood-color="white"
           flood-opacity="1"
           result="bgnd"
           id="feFlood24" />
        <feComposite
           in="SourceGraphic"
           in2="bgnd"
           operator="atop"
           id="feComposite26" />
      </filter>
      <filter
         id="greybox"
         filterUnits="objectBoundingBox"
         x="0"
         y="0"
         height="1"
         width="1">
        <feFlood
           flood-color="lightgrey"
           flood-opacity="1"
           result="grey"
           id="feFlood29" />
        <feComposite
           in="SourceGraphic"
           in2="grey"
           operator="atop"
           id="feComposite31" />
      </filter>
    </defs>
    <g
       fill="none"
       color="white"
       stroke="currentColor"
       stroke-width="1.00"
       stroke-linecap="butt"
       stroke-linejoin="miter"
       id="g36" />
    <g
       fill="none"
       color="black"
       stroke="currentColor"
       stroke-width="1.00"
       stroke-linecap="butt"
       stroke-linejoin="miter"
       id="g44">
      <path
         stroke="black"
         d="M63.6,342.4 L72.6,342.4 M615.0,342.4 L606.0,342.4  "
         id="path38" />
      <g
         transform="translate(55.3,346.3)"
         stroke="none"
         fill="black"
         font-family="Arial"
         font-size="12.00"
         text-anchor="end"
         id="g42">
        <text
           id="text40">-10</text>
      </g>
    </g>
    <g
       fill="none"
       color="black"
       stroke="currentColor"
       stroke-width="1.00"
       stroke-linecap="butt"
       stroke-linejoin="miter"
       id="g52">
      <path
         stroke="black"
         d="M63.6,308.4 L72.6,308.4 M615.0,308.4 L606.0,308.4  "
         id="path46" />
      <g
         transform="translate(55.3,312.3)"
         stroke="none"
         fill="black"
         font-family="Arial"
         font-size="12.00"
         text-anchor="end"
         id="g50">
        <text
           id="text48">-8</text>
      </g>
    </g>
    <g
       fill="none"
       color="black"
       stroke="currentColor"
       stroke-width="1.00"
       stroke-linecap="butt"
       stroke-linejoin="miter"
       id="g60">
      <path
         stroke="black"
         d="M63.6,274.3 L72.6,274.3 M615.0,274.3 L606.0,274.3  "
         id="path54" />
      <g
         transform="translate(55.3,278.2)"
         stroke="none"
         fill="black"
         font-family="Arial"
         font-size="12.00"
         text-anchor="end"
         id="g58">
        <text
           id="text56">-6</text>
      </g>
    </g>
    <g
       fill="none"
       color="black"
       stroke="currentColor"
       stroke-width="1.00"
       stroke-linecap="butt"
       stroke-linejoin="miter"
       id="g68">
      <path
         stroke="black"
         d="M63.6,240.3 L72.6,240.3 M615.0,240.3 L606.0,240.3  "
         id="path62" />
      <g
         transform="translate(55.3,244.2)"
         stroke="none"
         fill="black"
         font-family="Arial"
         font-size="12.00"
         text-anchor="end"
         id="g66">
        <text
           id="text64">-4</text>
      </g>
    </g>
    <g
       fill="none"
       color="black"
       stroke="currentColor"
       stroke-width="1.00"
       stroke-linecap="butt"
       stroke-linejoin="miter"
       id="g76">
      <path
         stroke="black"
         d="M63.6,206.3 L72.6,206.3 M615.0,206.3 L606.0,206.3  "
         id="path70" />
      <g
         transform="translate(55.3,210.2)"
         stroke="none"
         fill="black"
         font-family="Arial"
         font-size="12.00"
         text-anchor="end"
         id="g74">
        <text
           id="text72">-2</text>
      </g>
    </g>
    <g
       fill="none"
       color="black"
       stroke="currentColor"
       stroke-width="1.00"
       stroke-linecap="butt"
       stroke-linejoin="miter"
       id="g84">
      <path
         stroke="black"
         d="M63.6,172.2 L72.6,172.2 M615.0,172.2 L606.0,172.2  "
         id="path78" />
      <g
         transform="translate(55.3,176.1)"
         stroke="none"
         fill="black"
         font-family="Arial"
         font-size="12.00"
         text-anchor="end"
         id="g82">
        <text
           id="text80"> 0</text>
      </g>
    </g>
    <g
       fill="none"
       color="black"
       stroke="currentColor"
       stroke-width="1.00"
       stroke-linecap="butt"
       stroke-linejoin="miter"
       id="g92">
      <path
         stroke="black"
         d="M63.6,138.2 L72.6,138.2 M615.0,138.2 L606.0,138.2  "
         id="path86" />
      <g
         transform="translate(55.3,142.1)"
         stroke="none"
         fill="black"
         font-family="Arial"
         font-size="12.00"
         text-anchor="end"
         id="g90">
        <text
           id="text88"> 2</text>
      </g>
    </g>
    <g
       fill="none"
       color="black"
       stroke="currentColor"
       stroke-width="1.00"
       stroke-linecap="butt"
       stroke-linejoin="miter"
       id="g100">
      <path
         stroke="black"
         d="M63.6,104.2 L72.6,104.2 M615.0,104.2 L606.0,104.2  "
         id="path94" />
      <g
         transform="translate(55.3,108.1)"
         stroke="none"
         fill="black"
         font-family="Arial"
         font-size="12.00"
         text-anchor="end"
         id="g98">
        <text
           id="text96"> 4</text>
      </g>
    </g>
    <g
       fill="none"
       color="black"
       stroke="currentColor"
       stroke-width="1.00"
       stroke-linecap="butt"
       stroke-linejoin="miter"
       id="g108">
      <path
         stroke="black"
         d="M63.6,70.1 L72.6,70.1 M615.0,70.1 L606.0,70.1  "
         id="path102" />
      <g
         transform="translate(55.3,74.0)"
         stroke="none"
         fill="black"
         font-family="Arial"
         font-size="12.00"
         text-anchor="end"
         id="g106">
        <text
           id="text104"> 6</text>
      </g>
    </g>
    <g
       fill="none"
       color="black"
       stroke="currentColor"
       stroke-width="1.00"
       stroke-linecap="butt"
       stroke-linejoin="miter"
       id="g116">
      <path
         stroke="black"
         d="M63.6,36.1 L72.6,36.1 M615.0,36.1 L606.0,36.1  "
         id="path110" />
      <g
         transform="translate(55.3,40.0)"
         stroke="none"
         fill="black"
         font-family="Arial"
         font-size="12.00"
         text-anchor="end"
         id="g114">
        <text
           id="text112"> 8</text>
      </g>
    </g>
    <g
       fill="none"
       color="black"
       stroke="currentColor"
       stroke-width="1.00"
       stroke-linecap="butt"
       stroke-linejoin="miter"
       id="g124">
      <path
         stroke="black"
         d="M63.6,342.4 L63.6,333.4 M63.6,36.1 L63.6,45.1  "
         id="path118" />
      <g
         transform="translate(63.6,364.3)"
         stroke="none"
         fill="black"
         font-family="Arial"
         font-size="12.00"
         text-anchor="middle"
         id="g122">
        <text
           id="text120"> 0</text>
      </g>
    </g>
    <g
       fill="none"
       color="black"
       stroke="currentColor"
       stroke-width="1.00"
       stroke-linecap="butt"
       stroke-linejoin="miter"
       id="g132">
      <path
         stroke="black"
         d="M142.4,342.4 L142.4,333.4 M142.4,36.1 L142.4,45.1  "
         id="path126" />
      <g
         transform="translate(142.4,364.3)"
         stroke="none"
         fill="black"
         font-family="Arial"
         font-size="12.00"
         text-anchor="middle"
         id="g130">
        <text
           id="text128"> 1</text>
      </g>
    </g>
    <g
       fill="none"
       color="black"
       stroke="currentColor"
       stroke-width="1.00"
       stroke-linecap="butt"
       stroke-linejoin="miter"
       id="g140">
      <path
         stroke="black"
         d="M221.1,342.4 L221.1,333.4 M221.1,36.1 L221.1,45.1  "
         id="path134" />
      <g
         transform="translate(221.1,364.3)"
         stroke="none"
         fill="black"
         font-family="Arial"
         font-size="12.00"
         text-anchor="middle"
         id="g138">
        <text
           id="text136"> 2</text>
      </g>
    </g>
    <g
       fill="none"
       color="black"
       stroke="currentColor"
       stroke-width="1.00"
       stroke-linecap="butt"
       stroke-linejoin="miter"
       id="g148">
      <path
         stroke="black"
         d="M299.9,342.4 L299.9,333.4 M299.9,36.1 L299.9,45.1  "
         id="path142" />
      <g
         transform="translate(299.9,364.3)"
         stroke="none"
         fill="black"
         font-family="Arial"
         font-size="12.00"
         text-anchor="middle"
         id="g146">
        <text
           id="text144"> 3</text>
      </g>
    </g>
    <g
       fill="none"
       color="black"
       stroke="currentColor"
       stroke-width="1.00"
       stroke-linecap="butt"
       stroke-linejoin="miter"
       id="g156">
      <path
         stroke="black"
         d="M378.7,342.4 L378.7,333.4 M378.7,36.1 L378.7,45.1  "
         id="path150" />
      <g
         transform="translate(378.7,364.3)"
         stroke="none"
         fill="black"
         font-family="Arial"
         font-size="12.00"
         text-anchor="middle"
         id="g154">
        <text
           id="text152"> 4</text>
      </g>
    </g>
    <g
       fill="none"
       color="black"
       stroke="currentColor"
       stroke-width="1.00"
       stroke-linecap="butt"
       stroke-linejoin="miter"
       id="g164">
      <path
         stroke="black"
         d="M457.5,342.4 L457.5,333.4 M457.5,36.1 L457.5,45.1  "
         id="path158" />
      <g
         transform="translate(457.5,364.3)"
         stroke="none"
         fill="black"
         font-family="Arial"
         font-size="12.00"
         text-anchor="middle"
         id="g162">
        <text
           id="text160"> 5</text>
      </g>
    </g>
    <g
       fill="none"
       color="black"
       stroke="currentColor"
       stroke-width="1.00"
       stroke-linecap="butt"
       stroke-linejoin="miter"
       id="g172">
      <path
         stroke="black"
         d="M536.2,342.4 L536.2,333.4 M536.2,36.1 L536.2,45.1  "
         id="path166" />
      <g
         transform="translate(536.2,364.3)"
         stroke="none"
         fill="black"
         font-family="Arial"
         font-size="12.00"
         text-anchor="middle"
         id="g170">
        <text
           id="text168"> 6</text>
      </g>
    </g>
    <g
       fill="none"
       color="black"
       stroke="currentColor"
       stroke-width="1.00"
       stroke-linecap="butt"
       stroke-linejoin="miter"
       id="g180">
      <path
         stroke="black"
         d="M615.0,342.4 L615.0,333.4 M615.0,36.1 L615.0,45.1  "
         id="path174" />
      <g
         transform="translate(615.0,364.3)"
         stroke="none"
         fill="black"
         font-family="Arial"
         font-size="12.00"
         text-anchor="middle"
         id="g178">
        <text
           id="text176"> 7</text>
      </g>
    </g>
    <g
       fill="none"
       color="black"
       stroke="currentColor"
       stroke-width="1.00"
       stroke-linecap="butt"
       stroke-linejoin="miter"
       id="g182" />
    <g
       fill="none"
       color="black"
       stroke="currentColor"
       stroke-width="1.00"
       stroke-linecap="butt"
       stroke-linejoin="miter"
       id="g186">
      <path
         stroke="black"
         d="M63.6,36.1 L63.6,342.4 L615.0,342.4 L615.0,36.1 L63.6,36.1 Z  "
         id="path184" />
    </g>
    <g
       fill="none"
       color="black"
       stroke="currentColor"
       stroke-width="1.00"
       stroke-linecap="butt"
       stroke-linejoin="miter"
       id="g192">
      <g
         transform="translate(16.3,189.3) rotate(270)"
         stroke="none"
         fill="black"
         font-family="Arial"
         font-size="12.00"
         text-anchor="middle"
         id="g190">
        <text
           id="text188">State</text>
      </g>
    </g>
    <g
       fill="none"
       color="black"
       stroke="currentColor"
       stroke-width="1.00"
       stroke-linecap="butt"
       stroke-linejoin="miter"
       id="g198">
      <g
         transform="translate(339.3,391.3)"
         stroke="none"
         fill="black"
         font-family="Arial"
         font-size="12.00"
         text-anchor="middle"
         id="g196">
        <text
           id="text194">Time [s]</text>
      </g>
    </g>
    <g
       fill="none"
       color="black"
       stroke="currentColor"
       stroke-width="1.00"
       stroke-linecap="butt"
       stroke-linejoin="miter"
       id="g200" />
    <g
       id="gnuplot_plot_1">
      <title
         id="title202">gnuplot_plot_1</title>
      <g
         fill="none"
         color="black"
         stroke="currentColor"
         stroke-width="1.00"
         stroke-linecap="butt"
         stroke-linejoin="miter"
         id="g208">
        <g
           transform="translate(71.9,21.9)"
           stroke="none"
           fill="black"
           font-family="Arial"
           font-size="12.00"
           text-anchor="end"
           id="g206">
          <text
             id="text204">x</text>
        </g>
      </g>
      <g
         fill="none"
         color="black"
         stroke="currentColor"
         stroke-width="1.00"
         stroke-linecap="butt"
         stroke-linejoin="miter"
         id="g212">
        <path
           stroke="#9400d3"
           d="m 80.2,18 h 42.2"
           id="path210"
           sodipodi:nodetypes="cc" />
      </g>
    </g>
    <g
       id="gnuplot_plot_2">
      <title
         id="title215">gnuplot_plot_2</title>
      <g
         fill="none"
         color="black"
         stroke="currentColor"
         stroke-width="1.00"
         stroke-linecap="butt"
         stroke-linejoin="miter"
         id="g221">
        <g
           transform="translate(139.0,21.9)"
           stroke="none"
           fill="black"
           font-family="Arial"
           font-size="12.00"
           text-anchor="end"
           id="g219">
          <text
             id="text217">v</text>
        </g>
      </g>
      <g
         fill="none"
         color="black"
         stroke="currentColor"
         stroke-width="1.00"
         stroke-linecap="butt"
         stroke-linejoin="miter"
         id="g225">
        <path
           stroke="#009e73"
           d="m 147.3,18 h 42.2"
           id="path223"
           sodipodi:nodetypes="cc" />
      </g>
    </g>
    <g
       id="gnuplot_plot_29">
      <title
         id="title410">gnuplot_plot_29</title>
      <g
         fill="none"
         color="white"
         stroke="rgb(  0, 158, 115)"
         stroke-width="0.50"
         stroke-linecap="butt"
         stroke-linejoin="miter"
         id="g412" />
      <g
         fill="none"
         color="black"
         stroke="currentColor"
         stroke-width="0.50"
         stroke-linecap="butt"
         stroke-linejoin="miter"
         id="g416">
        <path
           stroke="black"
           stroke-dasharray="1.2,2.0"
           d="M63.6,342.4 L63.6,36.1  "
           id="path414" />
      </g>
    </g>
    <g
       fill="none"
       color="white"
       stroke="black"
       stroke-width="2.00"
       stroke-linecap="butt"
       stroke-linejoin="miter"
       id="g510" />
    <g
       fill="none"
       color="black"
       stroke="currentColor"
       stroke-width="2.00"
       stroke-linecap="butt"
       stroke-linejoin="miter"
       id="g512" />
    <g
       fill="none"
       color="black"
       stroke="black"
       stroke-width="1.00"
       stroke-linecap="butt"
       stroke-linejoin="miter"
       id="g514" />
    <g
       fill="none"
       color="black"
       stroke="currentColor"
       stroke-width="1.00"
       stroke-linecap="butt"
       stroke-linejoin="miter"
       id="g518">
      <path
         stroke="black"
         d="M63.6,36.1 L63.6,342.4 L615.0,342.4 L615.0,36.1 L63.6,36.1 Z  "
         id="path516" />
    </g>
    <g
       fill="none"
       color="black"
       stroke="currentColor"
       stroke-width="1.00"
       stroke-linecap="butt"
       stroke-linejoin="miter"
       id="g520" />
  </g>
  <metadata
     id="metadata1887">
    <rdf:RDF>
      <cc:Work
         rdf:about="">
        <dc:title>Gnuplot</dc:title>
      </cc:Work>
    </rdf:RDF>
  </metadata>
</svg>
