<?xml version="1.0" encoding="UTF-8" standalone="no"?>
<svg
   width="640"
   height="400"
   viewBox="0 0 640 400"
   version="1.1"
   id="svg5289"
   sodipodi:docname="ball_14c_1_.svg"
   inkscape:version="1.1 (c4e8f9ed74, 2021-05-24)"
   xmlns:inkscape="http://www.inkscape.org/namespaces/inkscape"
   xmlns:sodipodi="http://sodipodi.sourceforge.net/DTD/sodipodi-0.dtd"
   xmlns:xlink="http://www.w3.org/1999/xlink"
   xmlns="http://www.w3.org/2000/svg"
   xmlns:svg="http://www.w3.org/2000/svg"
   xmlns:rdf="http://www.w3.org/1999/02/22-rdf-syntax-ns#"
   xmlns:cc="http://creativecommons.org/ns#"
   xmlns:dc="http://purl.org/dc/elements/1.1/">
  <defs
     id="defs5293" />
  <sodipodi:namedview
     id="namedview5291"
     pagecolor="#ffffff"
     bordercolor="#666666"
     borderopacity="1.0"
     inkscape:pageshadow="2"
     inkscape:pageopacity="0.0"
     inkscape:pagecheckerboard="0"
     showgrid="false"
     inkscape:zoom="1.9453125"
     inkscape:cx="320"
     inkscape:cy="199.45382"
     inkscape:window-width="1920"
     inkscape:window-height="1047"
     inkscape:window-x="0"
     inkscape:window-y="16"
     inkscape:window-maximized="1"
     inkscape:current-layer="gnuplot_canvas" />
  <title
     id="title4768">Gnuplot</title>
  <desc
     id="desc4770">Produced by GNUPLOT 5.2 patchlevel 5 </desc>
  <g
     id="gnuplot_canvas">
    <rect
       x="0"
       y="0"
       width="640"
       height="400"
       fill="none"
       id="rect4772" />
    <defs
       id="defs4800">
      <circle
         id="gpDot"
         r="0.5"
         stroke-width="0.5"
         stroke="currentColor" />
      <path
         id="gpPt0"
         stroke-width="0.222"
         stroke="currentColor"
         d="M-1,0 h2 M0,-1 v2" />
      <path
         id="gpPt1"
         stroke-width="0.222"
         stroke="currentColor"
         d="M-1,-1 L1,1 M1,-1 L-1,1" />
      <path
         id="gpPt2"
         stroke-width="0.222"
         stroke="currentColor"
         d="M-1,0 L1,0 M0,-1 L0,1 M-1,-1 L1,1 M-1,1 L1,-1" />
      <rect
         id="gpPt3"
         stroke-width="0.222"
         stroke="currentColor"
         x="-1"
         y="-1"
         width="2"
         height="2" />
      <rect
         id="gpPt4"
         stroke-width="0.222"
         stroke="currentColor"
         fill="currentColor"
         x="-1"
         y="-1"
         width="2"
         height="2" />
      <circle
         id="gpPt5"
         stroke-width="0.222"
         stroke="currentColor"
         cx="0"
         cy="0"
         r="1" />
      <use
         xlink:href="#gpPt5"
         id="gpPt6"
         fill="currentColor"
         stroke="none" />
      <path
         id="gpPt7"
         stroke-width="0.222"
         stroke="currentColor"
         d="M0,-1.33 L-1.33,0.67 L1.33,0.67 z" />
      <use
         xlink:href="#gpPt7"
         id="gpPt8"
         fill="currentColor"
         stroke="none" />
      <use
         xlink:href="#gpPt7"
         id="gpPt9"
         stroke="currentColor"
         transform="rotate(180)" />
      <use
         xlink:href="#gpPt9"
         id="gpPt10"
         fill="currentColor"
         stroke="none" />
      <use
         xlink:href="#gpPt3"
         id="gpPt11"
         stroke="currentColor"
         transform="rotate(45)" />
      <use
         xlink:href="#gpPt11"
         id="gpPt12"
         fill="currentColor"
         stroke="none" />
      <path
         id="gpPt13"
         stroke-width="0.222"
         stroke="currentColor"
         d="M0,1.330 L1.265,0.411 L0.782,-1.067 L-0.782,-1.076 L-1.265,0.411 z" />
      <use
         xlink:href="#gpPt13"
         id="gpPt14"
         fill="currentColor"
         stroke="none" />
      <filter
         id="textbox"
         filterUnits="objectBoundingBox"
         x="0"
         y="0"
         height="1"
         width="1">
        <feFlood
           flood-color="white"
           flood-opacity="1"
           result="bgnd"
           id="feFlood4790" />
        <feComposite
           in="SourceGraphic"
           in2="bgnd"
           operator="atop"
           id="feComposite4792" />
      </filter>
      <filter
         id="greybox"
         filterUnits="objectBoundingBox"
         x="0"
         y="0"
         height="1"
         width="1">
        <feFlood
           flood-color="lightgrey"
           flood-opacity="1"
           result="grey"
           id="feFlood4795" />
        <feComposite
           in="SourceGraphic"
           in2="grey"
           operator="atop"
           id="feComposite4797" />
      </filter>
    </defs>
    <g
       fill="none"
       color="white"
       stroke="currentColor"
       stroke-width="1.00"
       stroke-linecap="butt"
       stroke-linejoin="miter"
       id="g4802" />
    <g
       fill="none"
       color="black"
       stroke="currentColor"
       stroke-width="1.00"
       stroke-linecap="butt"
       stroke-linejoin="miter"
       id="g4810">
      <path
         stroke="black"
         d="M63.6,342.4 L72.6,342.4 M615.0,342.4 L606.0,342.4  "
         id="path4804" />
      <g
         transform="translate(55.3,346.3)"
         stroke="none"
         fill="black"
         font-family="Arial"
         font-size="12.00"
         text-anchor="end"
         id="g4808">
        <text
           id="text4806">-10</text>
      </g>
    </g>
    <g
       fill="none"
       color="black"
       stroke="currentColor"
       stroke-width="1.00"
       stroke-linecap="butt"
       stroke-linejoin="miter"
       id="g4818">
      <path
         stroke="black"
         d="M63.6,308.4 L72.6,308.4 M615.0,308.4 L606.0,308.4  "
         id="path4812" />
      <g
         transform="translate(55.3,312.3)"
         stroke="none"
         fill="black"
         font-family="Arial"
         font-size="12.00"
         text-anchor="end"
         id="g4816">
        <text
           id="text4814">-8</text>
      </g>
    </g>
    <g
       fill="none"
       color="black"
       stroke="currentColor"
       stroke-width="1.00"
       stroke-linecap="butt"
       stroke-linejoin="miter"
       id="g4826">
      <path
         stroke="black"
         d="M63.6,274.3 L72.6,274.3 M615.0,274.3 L606.0,274.3  "
         id="path4820" />
      <g
         transform="translate(55.3,278.2)"
         stroke="none"
         fill="black"
         font-family="Arial"
         font-size="12.00"
         text-anchor="end"
         id="g4824">
        <text
           id="text4822">-6</text>
      </g>
    </g>
    <g
       fill="none"
       color="black"
       stroke="currentColor"
       stroke-width="1.00"
       stroke-linecap="butt"
       stroke-linejoin="miter"
       id="g4834">
      <path
         stroke="black"
         d="M63.6,240.3 L72.6,240.3 M615.0,240.3 L606.0,240.3  "
         id="path4828" />
      <g
         transform="translate(55.3,244.2)"
         stroke="none"
         fill="black"
         font-family="Arial"
         font-size="12.00"
         text-anchor="end"
         id="g4832">
        <text
           id="text4830">-4</text>
      </g>
    </g>
    <g
       fill="none"
       color="black"
       stroke="currentColor"
       stroke-width="1.00"
       stroke-linecap="butt"
       stroke-linejoin="miter"
       id="g4842">
      <path
         stroke="black"
         d="M63.6,206.3 L72.6,206.3 M615.0,206.3 L606.0,206.3  "
         id="path4836" />
      <g
         transform="translate(55.3,210.2)"
         stroke="none"
         fill="black"
         font-family="Arial"
         font-size="12.00"
         text-anchor="end"
         id="g4840">
        <text
           id="text4838">-2</text>
      </g>
    </g>
    <g
       fill="none"
       color="black"
       stroke="currentColor"
       stroke-width="1.00"
       stroke-linecap="butt"
       stroke-linejoin="miter"
       id="g4850">
      <path
         stroke="black"
         d="M63.6,172.2 L72.6,172.2 M615.0,172.2 L606.0,172.2  "
         id="path4844" />
      <g
         transform="translate(55.3,176.1)"
         stroke="none"
         fill="black"
         font-family="Arial"
         font-size="12.00"
         text-anchor="end"
         id="g4848">
        <text
           id="text4846"> 0</text>
      </g>
    </g>
    <g
       fill="none"
       color="black"
       stroke="currentColor"
       stroke-width="1.00"
       stroke-linecap="butt"
       stroke-linejoin="miter"
       id="g4858">
      <path
         stroke="black"
         d="M63.6,138.2 L72.6,138.2 M615.0,138.2 L606.0,138.2  "
         id="path4852" />
      <g
         transform="translate(55.3,142.1)"
         stroke="none"
         fill="black"
         font-family="Arial"
         font-size="12.00"
         text-anchor="end"
         id="g4856">
        <text
           id="text4854"> 2</text>
      </g>
    </g>
    <g
       fill="none"
       color="black"
       stroke="currentColor"
       stroke-width="1.00"
       stroke-linecap="butt"
       stroke-linejoin="miter"
       id="g4866">
      <path
         stroke="black"
         d="M63.6,104.2 L72.6,104.2 M615.0,104.2 L606.0,104.2  "
         id="path4860" />
      <g
         transform="translate(55.3,108.1)"
         stroke="none"
         fill="black"
         font-family="Arial"
         font-size="12.00"
         text-anchor="end"
         id="g4864">
        <text
           id="text4862"> 4</text>
      </g>
    </g>
    <g
       fill="none"
       color="black"
       stroke="currentColor"
       stroke-width="1.00"
       stroke-linecap="butt"
       stroke-linejoin="miter"
       id="g4874">
      <path
         stroke="black"
         d="M63.6,70.1 L72.6,70.1 M615.0,70.1 L606.0,70.1  "
         id="path4868" />
      <g
         transform="translate(55.3,74.0)"
         stroke="none"
         fill="black"
         font-family="Arial"
         font-size="12.00"
         text-anchor="end"
         id="g4872">
        <text
           id="text4870"> 6</text>
      </g>
    </g>
    <g
       fill="none"
       color="black"
       stroke="currentColor"
       stroke-width="1.00"
       stroke-linecap="butt"
       stroke-linejoin="miter"
       id="g4882">
      <path
         stroke="black"
         d="M63.6,36.1 L72.6,36.1 M615.0,36.1 L606.0,36.1  "
         id="path4876" />
      <g
         transform="translate(55.3,40.0)"
         stroke="none"
         fill="black"
         font-family="Arial"
         font-size="12.00"
         text-anchor="end"
         id="g4880">
        <text
           id="text4878"> 8</text>
      </g>
    </g>
    <g
       fill="none"
       color="black"
       stroke="currentColor"
       stroke-width="1.00"
       stroke-linecap="butt"
       stroke-linejoin="miter"
       id="g4890">
      <path
         stroke="black"
         d="M63.6,342.4 L63.6,333.4 M63.6,36.1 L63.6,45.1  "
         id="path4884" />
      <g
         transform="translate(63.6,364.3)"
         stroke="none"
         fill="black"
         font-family="Arial"
         font-size="12.00"
         text-anchor="middle"
         id="g4888">
        <text
           id="text4886"> 0</text>
      </g>
    </g>
    <g
       fill="none"
       color="black"
       stroke="currentColor"
       stroke-width="1.00"
       stroke-linecap="butt"
       stroke-linejoin="miter"
       id="g4898">
      <path
         stroke="black"
         d="M142.4,342.4 L142.4,333.4 M142.4,36.1 L142.4,45.1  "
         id="path4892" />
      <g
         transform="translate(142.4,364.3)"
         stroke="none"
         fill="black"
         font-family="Arial"
         font-size="12.00"
         text-anchor="middle"
         id="g4896">
        <text
           id="text4894"> 1</text>
      </g>
    </g>
    <g
       fill="none"
       color="black"
       stroke="currentColor"
       stroke-width="1.00"
       stroke-linecap="butt"
       stroke-linejoin="miter"
       id="g4906">
      <path
         stroke="black"
         d="M221.1,342.4 L221.1,333.4 M221.1,36.1 L221.1,45.1  "
         id="path4900" />
      <g
         transform="translate(221.1,364.3)"
         stroke="none"
         fill="black"
         font-family="Arial"
         font-size="12.00"
         text-anchor="middle"
         id="g4904">
        <text
           id="text4902"> 2</text>
      </g>
    </g>
    <g
       fill="none"
       color="black"
       stroke="currentColor"
       stroke-width="1.00"
       stroke-linecap="butt"
       stroke-linejoin="miter"
       id="g4914">
      <path
         stroke="black"
         d="M299.9,342.4 L299.9,333.4 M299.9,36.1 L299.9,45.1  "
         id="path4908" />
      <g
         transform="translate(299.9,364.3)"
         stroke="none"
         fill="black"
         font-family="Arial"
         font-size="12.00"
         text-anchor="middle"
         id="g4912">
        <text
           id="text4910"> 3</text>
      </g>
    </g>
    <g
       fill="none"
       color="black"
       stroke="currentColor"
       stroke-width="1.00"
       stroke-linecap="butt"
       stroke-linejoin="miter"
       id="g4922">
      <path
         stroke="black"
         d="M378.7,342.4 L378.7,333.4 M378.7,36.1 L378.7,45.1  "
         id="path4916" />
      <g
         transform="translate(378.7,364.3)"
         stroke="none"
         fill="black"
         font-family="Arial"
         font-size="12.00"
         text-anchor="middle"
         id="g4920">
        <text
           id="text4918"> 4</text>
      </g>
    </g>
    <g
       fill="none"
       color="black"
       stroke="currentColor"
       stroke-width="1.00"
       stroke-linecap="butt"
       stroke-linejoin="miter"
       id="g4930">
      <path
         stroke="black"
         d="M457.5,342.4 L457.5,333.4 M457.5,36.1 L457.5,45.1  "
         id="path4924" />
      <g
         transform="translate(457.5,364.3)"
         stroke="none"
         fill="black"
         font-family="Arial"
         font-size="12.00"
         text-anchor="middle"
         id="g4928">
        <text
           id="text4926"> 5</text>
      </g>
    </g>
    <g
       fill="none"
       color="black"
       stroke="currentColor"
       stroke-width="1.00"
       stroke-linecap="butt"
       stroke-linejoin="miter"
       id="g4938">
      <path
         stroke="black"
         d="M536.2,342.4 L536.2,333.4 M536.2,36.1 L536.2,45.1  "
         id="path4932" />
      <g
         transform="translate(536.2,364.3)"
         stroke="none"
         fill="black"
         font-family="Arial"
         font-size="12.00"
         text-anchor="middle"
         id="g4936">
        <text
           id="text4934"> 6</text>
      </g>
    </g>
    <g
       fill="none"
       color="black"
       stroke="currentColor"
       stroke-width="1.00"
       stroke-linecap="butt"
       stroke-linejoin="miter"
       id="g4946">
      <path
         stroke="black"
         d="M615.0,342.4 L615.0,333.4 M615.0,36.1 L615.0,45.1  "
         id="path4940" />
      <g
         transform="translate(615.0,364.3)"
         stroke="none"
         fill="black"
         font-family="Arial"
         font-size="12.00"
         text-anchor="middle"
         id="g4944">
        <text
           id="text4942"> 7</text>
      </g>
    </g>
    <g
       fill="none"
       color="black"
       stroke="currentColor"
       stroke-width="1.00"
       stroke-linecap="butt"
       stroke-linejoin="miter"
       id="g4948" />
    <g
       fill="none"
       color="black"
       stroke="currentColor"
       stroke-width="1.00"
       stroke-linecap="butt"
       stroke-linejoin="miter"
       id="g4952">
      <path
         stroke="black"
         d="M63.6,36.1 L63.6,342.4 L615.0,342.4 L615.0,36.1 L63.6,36.1 Z  "
         id="path4950" />
    </g>
    <g
       fill="none"
       color="black"
       stroke="currentColor"
       stroke-width="1.00"
       stroke-linecap="butt"
       stroke-linejoin="miter"
       id="g4958">
      <g
         transform="translate(16.3,189.3) rotate(270)"
         stroke="none"
         fill="black"
         font-family="Arial"
         font-size="12.00"
         text-anchor="middle"
         id="g4956">
        <text
           id="text4954">State</text>
      </g>
    </g>
    <g
       fill="none"
       color="black"
       stroke="currentColor"
       stroke-width="1.00"
       stroke-linecap="butt"
       stroke-linejoin="miter"
       id="g4964">
      <g
         transform="translate(339.3,391.3)"
         stroke="none"
         fill="black"
         font-family="Arial"
         font-size="12.00"
         text-anchor="middle"
         id="g4962">
        <text
           id="text4960">Time [s]</text>
      </g>
    </g>
    <g
       fill="none"
       color="black"
       stroke="currentColor"
       stroke-width="1.00"
       stroke-linecap="butt"
       stroke-linejoin="miter"
       id="g4966" />
    <g
       id="gnuplot_plot_1">
      <title
         id="title4968">gnuplot_plot_1</title>
      <g
         fill="none"
         color="black"
         stroke="currentColor"
         stroke-width="1.00"
         stroke-linecap="butt"
         stroke-linejoin="miter"
         id="g4974">
        <g
           transform="translate(71.9,21.9)"
           stroke="none"
           fill="black"
           font-family="Arial"
           font-size="12.00"
           text-anchor="end"
           id="g4972">
          <text
             id="text4970">x</text>
        </g>
      </g>
      <g
         fill="none"
         color="black"
         stroke="currentColor"
         stroke-width="1.00"
         stroke-linecap="butt"
         stroke-linejoin="miter"
         id="g4978">
        <path
           stroke="rgb(148,   0, 211)"
           d="M80.2,18.0 L122.4,18.0 M63.6,104.2 L64.4,105.2 L65.2,106.2 L66.0,107.3 L66.8,108.3 L67.5,109.4   L68.3,110.5 L69.1,111.6 L69.9,112.7 L70.7,113.8 L71.5,114.9 L72.3,116.0 L73.1,117.1 L73.8,118.3   L74.6,119.4 L75.4,120.6 L76.2,121.8 L77.0,122.9 L77.8,124.1 L78.6,125.3 L79.4,126.5 L80.1,127.7   L80.9,129.0 L81.7,130.2 L82.5,131.4 L83.3,132.7 L84.1,133.9 L84.9,135.2 L85.7,136.4 L86.4,137.7   L87.2,139.0 L88.0,140.3 L88.8,141.6 L89.6,142.9 L90.4,144.2 L91.2,145.5 L92.0,146.8 L92.7,148.1   L93.5,149.5 L94.3,150.8 L95.1,152.2 L95.9,153.5 L96.7,154.9 L97.5,156.2 L98.3,157.6 L99.0,159.0   L99.8,160.3 L100.6,161.7 L101.4,163.1 L102.2,164.5 L103.0,165.9 L103.8,167.3 L104.6,168.7 L105.3,170.1   L106.1,171.6 L106.4,172.0 L106.4,172.1 L106.5,172.2  "
           id="path4976" />
      </g>
    </g>
    <g
       id="gnuplot_plot_2">
      <title
         id="title4981">gnuplot_plot_2</title>
      <g
         fill="none"
         color="black"
         stroke="currentColor"
         stroke-width="1.00"
         stroke-linecap="butt"
         stroke-linejoin="miter"
         id="g4987">
        <g
           transform="translate(139.0,21.9)"
           stroke="none"
           fill="black"
           font-family="Arial"
           font-size="12.00"
           text-anchor="end"
           id="g4985">
          <text
             id="text4983">v</text>
        </g>
      </g>
      <g
         fill="none"
         color="black"
         stroke="currentColor"
         stroke-width="1.00"
         stroke-linecap="butt"
         stroke-linejoin="miter"
         id="g4991">
        <path
           stroke="rgb(  0, 158, 115)"
           d="M147.3,18.0 L189.5,18.0 M63.6,274.3 L64.4,275.4 L65.2,276.4 L66.0,277.4 L66.8,278.5 L67.5,279.5   L68.3,280.4 L69.1,281.4 L69.9,282.4 L70.7,283.3 L71.5,284.3 L72.3,285.2 L73.1,286.1 L73.8,287.0   L74.6,287.9 L75.4,288.8 L76.2,289.6 L77.0,290.5 L77.8,291.3 L78.6,292.1 L79.4,293.0 L80.1,293.8   L80.9,294.6 L81.7,295.3 L82.5,296.1 L83.3,296.9 L84.1,297.6 L84.9,298.4 L85.7,299.1 L86.4,299.8   L87.2,300.5 L88.0,301.2 L88.8,301.9 L89.6,302.6 L90.4,303.2 L91.2,303.9 L92.0,304.5 L92.7,305.2   L93.5,305.8 L94.3,306.4 L95.1,307.0 L95.9,307.6 L96.7,308.2 L97.5,308.8 L98.3,309.3 L99.0,309.9   L99.8,310.4 L100.6,311.0 L101.4,311.5 L102.2,312.0 L103.0,312.5 L103.8,313.1 L104.6,313.6 L105.3,314.0   L106.1,314.5 L106.4,314.7 L106.5,314.7  "
           id="path4989" />
      </g>
    </g>
    <g
       id="gnuplot_plot_3">
      <title
         id="title4994">gnuplot_plot_3</title>
      <g
         fill="none"
         color="black"
         stroke="currentColor"
         stroke-width="1.00"
         stroke-linecap="butt"
         stroke-linejoin="miter"
         id="g4998">
        <path
           stroke="#9400d3"
           d="m 106.5,172.2 0.8,-1.3 0.8,-1.3 0.8,-1.3 0.8,-1.3 0.7,-1.2 0.8,-1.2 0.8,-1.2 0.8,-1.2 0.8,-1.1 0.8,-1.1 0.8,-1.1 0.8,-1.1 0.7,-1 0.8,-1 0.8,-1 0.8,-1 0.8,-0.9 0.8,-1 0.8,-0.9 0.8,-0.8 0.7,-0.9 0.8,-0.9 0.8,-0.8 0.8,-0.8 0.8,-0.8 0.8,-0.7 0.8,-0.8 0.8,-0.7 0.8,-0.7 0.7,-0.7 0.8,-0.6 0.8,-0.7 0.8,-0.6 0.8,-0.6 0.8,-0.6 0.8,-0.6 0.8,-0.5 0.7,-0.5 0.8,-0.6 0.8,-0.5 0.8,-0.4 0.8,-0.5 0.8,-0.4 0.8,-0.5 0.8,-0.4 0.7,-0.4 0.8,-0.3 0.8,-0.4 0.8,-0.3 0.8,-0.3 0.8,-0.3 0.8,-0.3 0.8,-0.3 0.7,-0.2"
           id="path4996"
           sodipodi:nodetypes="ccccccccccccccccccccccccccccccccccccccccccccccccccccccc" />
      </g>
    </g>
    <g
       id="gnuplot_plot_4">
      <title
         id="title5001">gnuplot_plot_4</title>
      <g
         fill="none"
         color="black"
         stroke="currentColor"
         stroke-width="1.00"
         stroke-linecap="butt"
         stroke-linejoin="miter"
         id="g5005">
        <path
           stroke="#009e73"
           d="m 106.5,36.8 0.8,2.8 0.8,2.6 0.8,2.7 0.8,2.6 0.7,2.6 0.8,2.5 0.8,2.5 0.8,2.4 0.8,2.5 0.8,2.3 0.8,2.4 0.8,2.3 0.7,2.3 0.8,2.3 0.8,2.3 0.8,2.2 0.8,2.2 0.8,2.2 0.8,2.1 0.8,2.1 0.7,2.2 0.8,2 0.8,2.1 0.8,2 0.8,2.1 0.8,2 0.8,2 0.8,1.9 0.8,2 0.7,1.9 0.8,2 0.8,1.9 0.8,1.9 0.8,1.9 0.8,1.8 0.8,1.9 0.8,1.8 0.7,1.9 0.8,1.8 0.8,1.8 0.8,1.8 0.8,1.8 0.8,1.8 0.8,1.8 0.8,1.7 0.7,1.8 0.8,1.7 0.8,1.8 0.8,1.7 0.8,1.7 0.8,1.7 0.8,1.8 0.8,1.7 0.7,1.7"
           id="path5003"
           sodipodi:nodetypes="ccccccccccccccccccccccccccccccccccccccccccccccccccccccc" />
      </g>
    </g>
    <g
       id="gnuplot_plot_29">
      <title
         id="title5176">gnuplot_plot_29</title>
      <g
         fill="none"
         color="white"
         stroke="rgb(  0, 158, 115)"
         stroke-width="0.50"
         stroke-linecap="butt"
         stroke-linejoin="miter"
         id="g5178" />
      <g
         fill="none"
         color="black"
         stroke="currentColor"
         stroke-width="0.50"
         stroke-linecap="butt"
         stroke-linejoin="miter"
         id="g5182">
        <path
           stroke="black"
           stroke-dasharray="1.2,2.0"
           d="M63.6,342.4 L63.6,36.1  "
           id="path5180" />
      </g>
    </g>
    <g
       id="gnuplot_plot_30">
      <title
         id="title5185">gnuplot_plot_30</title>
      <g
         fill="none"
         color="black"
         stroke="currentColor"
         stroke-width="0.50"
         stroke-linecap="butt"
         stroke-linejoin="miter"
         id="g5189">
        <path
           stroke="black"
           stroke-dasharray="1.2,2.0"
           d="M106.5,342.4 L106.5,36.1  "
           id="path5187" />
      </g>
    </g>
    <g
       fill="none"
       color="white"
       stroke="black"
       stroke-width="2.00"
       stroke-linecap="butt"
       stroke-linejoin="miter"
       id="g5276" />
    <g
       fill="none"
       color="black"
       stroke="currentColor"
       stroke-width="2.00"
       stroke-linecap="butt"
       stroke-linejoin="miter"
       id="g5278" />
    <g
       fill="none"
       color="black"
       stroke="black"
       stroke-width="1.00"
       stroke-linecap="butt"
       stroke-linejoin="miter"
       id="g5280" />
    <g
       fill="none"
       color="black"
       stroke="currentColor"
       stroke-width="1.00"
       stroke-linecap="butt"
       stroke-linejoin="miter"
       id="g5284">
      <path
         stroke="black"
         d="M63.6,36.1 L63.6,342.4 L615.0,342.4 L615.0,36.1 L63.6,36.1 Z  "
         id="path5282" />
    </g>
    <g
       fill="none"
       color="black"
       stroke="currentColor"
       stroke-width="1.00"
       stroke-linecap="butt"
       stroke-linejoin="miter"
       id="g5286" />
  </g>
  <metadata
     id="metadata1370">
    <rdf:RDF>
      <cc:Work
         rdf:about="">
        <dc:title>Gnuplot</dc:title>
      </cc:Work>
    </rdf:RDF>
  </metadata>
</svg>
