<?xml version="1.0" encoding="UTF-8" standalone="no"?>
<!-- Created with Inkscape (http://www.inkscape.org/) -->

<svg
   xmlns:dc="http://purl.org/dc/elements/1.1/"
   xmlns:cc="http://creativecommons.org/ns#"
   xmlns:rdf="http://www.w3.org/1999/02/22-rdf-syntax-ns#"
   xmlns:svg="http://www.w3.org/2000/svg"
   xmlns="http://www.w3.org/2000/svg"
   xmlns:sodipodi="http://sodipodi.sourceforge.net/DTD/sodipodi-0.dtd"
   xmlns:inkscape="http://www.inkscape.org/namespaces/inkscape"
   width="210mm"
   height="297mm"
   viewBox="0 0 210 297"
   version="1.1"
   id="svg18191"
   inkscape:version="0.92.4 5da689c313, 2019-01-14"
   sodipodi:docname="comp.svg">
  <defs
     id="defs18185" />
  <sodipodi:namedview
     id="base"
     pagecolor="#ffffff"
     bordercolor="#666666"
     borderopacity="1.0"
     inkscape:pageopacity="0.0"
     inkscape:pageshadow="2"
     inkscape:zoom="0.98994949"
     inkscape:cx="399.3765"
     inkscape:cy="314.57575"
     inkscape:document-units="mm"
     inkscape:current-layer="g19092"
     showgrid="false"
     inkscape:window-width="1600"
     inkscape:window-height="867"
     inkscape:window-x="0"
     inkscape:window-y="16"
     inkscape:window-maximized="0" />
  <metadata
     id="metadata18188">
    <rdf:RDF>
      <cc:Work
         rdf:about="">
        <dc:format>image/svg+xml</dc:format>
        <dc:type
           rdf:resource="http://purl.org/dc/dcmitype/StillImage" />
        <dc:title></dc:title>
      </cc:Work>
    </rdf:RDF>
  </metadata>
  <g
     inkscape:label="Layer 1"
     inkscape:groupmode="layer"
     id="layer1">
    <rect
       id="rect18193"
       width="127"
       height="161.77382"
       x="41.955357"
       y="86.467247"
       style="stroke-width:0.5;fill:#ff0000;fill-opacity:0.50230414;stroke:#000000;stroke-opacity:1;stroke-miterlimit:4;stroke-dasharray:none" />
    <text
       xml:space="preserve"
       style="font-style:normal;font-weight:normal;font-size:10.58333302px;line-height:1.25;font-family:sans-serif;letter-spacing:0px;word-spacing:0px;fill:#000000;fill-opacity:1;stroke:none;stroke-width:0.26458332"
       x="74.839287"
       y="101.5863"
       id="text19002"><tspan
         sodipodi:role="line"
         id="tspan19000"
         x="74.839287"
         y="101.5863"
         style="stroke-width:0.26458332">SMT solver</tspan></text>
    <g
       id="g19087"
       transform="matrix(0.83274079,0,0,1.0012996,24.481018,182.76041)">
      <rect
         y="25.188364"
         x="29.83123"
         height="29.557775"
         width="59.557774"
         id="rect19004"
         style="fill:#0000ff;fill-opacity:0.50196078;stroke:#000000;stroke-width:0.44222453;stroke-miterlimit:4;stroke-dasharray:none;stroke-opacity:1" />
      <text
         id="text19008"
         y="41.012142"
         x="40.972153"
         style="font-style:normal;font-weight:normal;font-size:10.58333302px;line-height:1.25;font-family:sans-serif;letter-spacing:0px;word-spacing:0px;fill:#000000;fill-opacity:1;stroke:none;stroke-width:0.26458332"
         xml:space="preserve"><tspan
           style="font-size:7.05555534px;stroke-width:0.26458332"
           y="41.012142"
           x="40.972153"
           id="tspan19006"
           sodipodi:role="line">SAT solver</tspan></text>
    </g>
    <g
       id="g19092"
       transform="matrix(0.83274079,0,0,1.0012996,17.604859,179.77754)">
      <rect
         y="28.968134"
         x="115.06486"
         height="29.557775"
         width="59.557774"
         id="rect19004-3"
         style="fill:#0000ff;fill-opacity:0.50196078;stroke:#000000;stroke-width:0.44222453;stroke-miterlimit:4;stroke-dasharray:none;stroke-opacity:1" />
      <text
         id="text19008-6"
         y="44.791912"
         x="125.11713"
         style="font-style:normal;font-weight:normal;font-size:10.58333302px;line-height:1.25;font-family:sans-serif;letter-spacing:0px;word-spacing:0px;fill:#000000;fill-opacity:1;stroke:none;stroke-width:0.26458332"
         xml:space="preserve"><tspan
           style="font-size:7.05555534px;stroke-width:0.26458332"
           y="44.791912"
           x="125.11713"
           id="tspan19006-7"
           sodipodi:role="line">ODE solver</tspan></text>
    </g>
    <g
       id="g19100"
       transform="translate(-8.2853555,-6.9490077)">
      <rect
         y="162.44843"
         x="91.000237"
         height="29.687099"
         width="29.687099"
         id="rect19004-5"
         style="fill:#00ff00;fill-opacity:0.50196078;stroke:#000000;stroke-width:0.51300001;stroke-miterlimit:4;stroke-dasharray:1.026, 0.513;stroke-dashoffset:0;stroke-opacity:1" />
      <text
         id="text19008-3"
         y="179.81378"
         x="98.398933"
         style="font-style:normal;font-weight:normal;font-size:10.58333302px;line-height:1.25;font-family:sans-serif;letter-spacing:0px;word-spacing:0px;fill:#000000;fill-opacity:1;stroke:none;stroke-width:0.26458332"
         xml:space="preserve"><tspan
           style="font-size:7.05555534px;stroke-width:0.26458332"
           y="179.81378"
           x="98.398933"
           id="tspan19006-5"
           sodipodi:role="line">Vars</tspan></text>
    </g>
    <g
       id="g19100-6"
       transform="translate(-1.0741314,-46.533621)">
      <rect
         y="162.52245"
         x="91.074249"
         height="29.539068"
         width="49.538971"
         id="rect19004-5-2"
         style="fill:#00ff00;fill-opacity:0.50196078;stroke:#000000;stroke-width:0.5;stroke-miterlimit:4;stroke-dasharray:1,0.5;stroke-dashoffset:0;stroke-opacity:1" />
      <text
         id="text19008-3-9"
         y="179.8138"
         x="104.4577"
         style="font-style:normal;font-weight:normal;font-size:10.58333302px;line-height:1.25;font-family:sans-serif;letter-spacing:0px;word-spacing:0px;fill:#000000;fill-opacity:1;stroke:none;stroke-width:0.26458332"
         xml:space="preserve"><tspan
           style="font-size:7.05555534px;stroke-width:0.26458332"
           y="179.8138"
           x="104.4577"
           id="tspan19006-5-1"
           sodipodi:role="line">Parser</tspan></text>
    </g>
    <g
       id="g19100-2"
       transform="translate(37.412681,-0.29599293)">
      <rect
         y="162.44843"
         x="91.000237"
         height="29.687099"
         width="29.687099"
         id="rect19004-5-7"
         style="fill:#00ff00;fill-opacity:0.50196078;stroke:#000000;stroke-width:0.51300001;stroke-miterlimit:4;stroke-dasharray:1.026, 0.513;stroke-dashoffset:0;stroke-opacity:1" />
      <text
         id="text19008-3-0"
         y="179.9223"
         x="95.778938"
         style="font-style:normal;font-weight:normal;font-size:10.58333302px;line-height:1.25;font-family:sans-serif;letter-spacing:0px;word-spacing:0px;fill:#000000;fill-opacity:1;stroke:none;stroke-width:0.26458332"
         xml:space="preserve"><tspan
           style="font-size:7.05555534px;stroke-width:0.26458332"
           y="179.9223"
           x="95.778938"
           id="tspan19006-5-9"
           sodipodi:role="line">Flows</tspan></text>
    </g>
    <g
       id="g19100-2-6"
       transform="translate(84.542881,-11.115059)">
      <g
         id="g19192"
         transform="translate(-106.79499,55.992966)">
        <rect
           style="fill:#ffff00;fill-opacity:0.50196078;stroke:#000000;stroke-width:0.17326434;stroke-miterlimit:4;stroke-dasharray:0.34652866, 0.17326433;stroke-dashoffset:0;stroke-opacity:1"
           id="rect19004-5-7-0"
           width="10.026735"
           height="10.026735"
           x="91.359535"
           y="182.27866" />
        <text
           xml:space="preserve"
           style="font-style:normal;font-weight:normal;font-size:3.5744915px;line-height:1.25;font-family:sans-serif;letter-spacing:0px;word-spacing:0px;fill:#000000;fill-opacity:1;stroke:none;stroke-width:0.08936229"
           x="92.810677"
           y="188.57619"
           id="text19008-3-0-6"><tspan
             sodipodi:role="line"
             id="tspan19006-5-9-2"
             x="92.810677"
             y="188.57619"
             style="font-size:3.52777767px;stroke-width:0.08936229">CNF</tspan></text>
      </g>
    </g>
  </g>
</svg>
