<?xml version="1.0" encoding="utf-8"  standalone="no"?>
<svg 
 width="600" height="320"
 viewBox="0 0 600 320"
 xmlns="http://www.w3.org/2000/svg"
 xmlns:xlink="http://www.w3.org/1999/xlink"
>

<title>Gnuplot</title>
<desc>Produced by GNUPLOT 5.2 patchlevel 5 </desc>

<g id="gnuplot_canvas">

<rect x="0" y="0" width="600" height="320" fill="none"/>
<defs>

	<circle id='gpDot' r='0.5' stroke-width='0.5' stroke='currentColor'/>
	<path id='gpPt0' stroke-width='0.190' stroke='currentColor' d='M-1,0 h2 M0,-1 v2'/>
	<path id='gpPt1' stroke-width='0.190' stroke='currentColor' d='M-1,-1 L1,1 M1,-1 L-1,1'/>
	<path id='gpPt2' stroke-width='0.190' stroke='currentColor' d='M-1,0 L1,0 M0,-1 L0,1 M-1,-1 L1,1 M-1,1 L1,-1'/>
	<rect id='gpPt3' stroke-width='0.190' stroke='currentColor' x='-1' y='-1' width='2' height='2'/>
	<rect id='gpPt4' stroke-width='0.190' stroke='currentColor' fill='currentColor' x='-1' y='-1' width='2' height='2'/>
	<circle id='gpPt5' stroke-width='0.190' stroke='currentColor' cx='0' cy='0' r='1'/>
	<use xlink:href='#gpPt5' id='gpPt6' fill='currentColor' stroke='none'/>
	<path id='gpPt7' stroke-width='0.190' stroke='currentColor' d='M0,-1.33 L-1.33,0.67 L1.33,0.67 z'/>
	<use xlink:href='#gpPt7' id='gpPt8' fill='currentColor' stroke='none'/>
	<use xlink:href='#gpPt7' id='gpPt9' stroke='currentColor' transform='rotate(180)'/>
	<use xlink:href='#gpPt9' id='gpPt10' fill='currentColor' stroke='none'/>
	<use xlink:href='#gpPt3' id='gpPt11' stroke='currentColor' transform='rotate(45)'/>
	<use xlink:href='#gpPt11' id='gpPt12' fill='currentColor' stroke='none'/>
	<path id='gpPt13' stroke-width='0.190' stroke='currentColor' d='M0,1.330 L1.265,0.411 L0.782,-1.067 L-0.782,-1.076 L-1.265,0.411 z'/>
	<use xlink:href='#gpPt13' id='gpPt14' fill='currentColor' stroke='none'/>
	<filter id='textbox' filterUnits='objectBoundingBox' x='0' y='0' height='1' width='1'>
	  <feFlood flood-color='white' flood-opacity='1' result='bgnd'/>
	  <feComposite in='SourceGraphic' in2='bgnd' operator='atop'/>
	</filter>
	<filter id='greybox' filterUnits='objectBoundingBox' x='0' y='0' height='1' width='1'>
	  <feFlood flood-color='lightgrey' flood-opacity='1' result='grey'/>
	  <feComposite in='SourceGraphic' in2='grey' operator='atop'/>
	</filter>
</defs>
<g fill="none" color="white" stroke="currentColor" stroke-width="1.00" stroke-linecap="butt" stroke-linejoin="miter">
</g>
<g fill="none" color="black" stroke="currentColor" stroke-width="1.00" stroke-linecap="butt" stroke-linejoin="miter">
</g>
<g fill="none" color="black" stroke="currentColor" stroke-width="1.00" stroke-linecap="butt" stroke-linejoin="miter">
	<path stroke='black'  d='M36.3,63.1 L36.3,284.3 L570.8,284.3 L570.8,63.1 L36.3,63.1 Z  '/></g>
<g fill="none" color="black" stroke="currentColor" stroke-width="1.00" stroke-linecap="butt" stroke-linejoin="miter">
	<g transform="translate(19.0,173.7) rotate(270)" stroke="none" fill="black" font-family="Arial" font-size="14.00"  text-anchor="middle">
		<text>Costs</text>
	</g>
</g>
<g fill="none" color="black" stroke="currentColor" stroke-width="1.00" stroke-linecap="butt" stroke-linejoin="miter">
	<g transform="translate(303.5,309.9)" stroke="none" fill="black" font-family="Arial" font-size="14.00"  text-anchor="middle">
		<text>Demands</text>
	</g>
</g>
<g fill="none" color="black" stroke="currentColor" stroke-width="1.00" stroke-linecap="butt" stroke-linejoin="miter">
	<g transform="translate(303.5,36.2)" stroke="none" fill="black" font-family="Arial" font-size="14.00"  text-anchor="middle">
		<text>Comparison of different fixed and variable costs</text>
	</g>
</g>
	<g id="gnuplot_plot_1" ><title>gnuplot_plot_1</title>
<g fill="none" color="black" stroke="currentColor" stroke-width="1.00" stroke-linecap="butt" stroke-linejoin="miter">
	<g transform="translate(492.4,88.7)" stroke="none" fill="black" font-family="Arial" font-size="14.00"  text-anchor="end">
		<text>High variable costs</text>
	</g>
</g>
<g fill="none" color="black" stroke="currentColor" stroke-width="1.00" stroke-linecap="butt" stroke-linejoin="miter">
	<path stroke='rgb(148,   0, 211)'  d='M502.1,84.1 L551.4,84.1 M36.3,282.8 L41.7,282.7 L47.1,282.7 L52.5,282.6 L57.9,282.5 L63.3,282.4
		L68.7,282.3 L74.1,282.2 L79.5,282.1 L84.9,282.0 L90.3,281.8 L95.7,281.7 L101.1,281.6 L106.5,281.4
		L111.9,281.3 L117.3,281.1 L122.7,281.0 L128.1,280.8 L133.5,280.6 L138.9,280.4 L144.3,280.2 L149.7,280.0
		L155.1,279.8 L160.5,279.5 L165.9,279.3 L171.3,279.0 L176.7,278.8 L182.1,278.5 L187.5,278.2 L192.9,277.9
		L198.3,277.5 L203.7,277.2 L209.1,276.8 L214.5,276.4 L219.9,276.0 L225.3,275.6 L230.7,275.1 L236.1,274.6
		L241.5,274.1 L246.9,273.6 L252.3,273.1 L257.7,272.5 L263.1,271.9 L268.5,271.2 L273.9,270.5 L279.3,269.8
		L284.7,269.1 L290.1,268.3 L295.5,267.5 L300.9,266.6 L306.2,265.7 L311.6,264.7 L317.0,263.7 L322.4,262.6
		L327.8,261.5 L333.2,260.3 L338.6,259.1 L344.0,257.8 L349.4,256.4 L354.8,255.0 L360.2,253.4 L365.6,251.8
		L371.0,250.2 L376.4,248.4 L381.8,246.5 L387.2,244.6 L392.6,242.5 L398.0,240.4 L403.4,238.1 L408.8,235.7
		L414.2,233.2 L419.6,230.5 L425.0,227.7 L430.4,224.8 L435.8,221.7 L441.2,218.5 L446.6,215.1 L452.0,211.5
		L457.4,207.7 L462.8,203.7 L468.2,199.6 L473.6,195.2 L479.0,190.6 L484.4,185.7 L489.8,180.6 L495.2,175.2
		L500.6,169.6 L506.0,163.6 L511.4,157.4 L516.8,150.8 L522.2,143.9 L527.6,136.6 L533.0,129.0 L538.4,120.9
		L543.8,112.5 L549.2,103.6 L554.6,94.2 L560.0,84.4 L565.4,74.0 L570.8,63.1  '/></g>
	</g>
	<g id="gnuplot_plot_2" ><title>gnuplot_plot_2</title>
<g fill="none" color="black" stroke="currentColor" stroke-width="1.00" stroke-linecap="butt" stroke-linejoin="miter">
	<g transform="translate(492.4,109.7)" stroke="none" fill="black" font-family="Arial" font-size="14.00"  text-anchor="end">
		<text>High fixed costs</text>
	</g>
</g>
<g fill="none" color="black" stroke="currentColor" stroke-width="1.00" stroke-linecap="butt" stroke-linejoin="miter">
	<path stroke='rgb(  0, 158, 115)'  d='M502.1,105.1 L551.4,105.1 M36.3,208.3 L41.7,208.2 L47.1,208.2 L52.5,208.1 L57.9,208.1 L63.3,208.0
		L68.7,208.0 L74.1,207.9 L79.5,207.8 L84.9,207.8 L90.3,207.7 L95.7,207.6 L101.1,207.6 L106.5,207.5
		L111.9,207.4 L117.3,207.3 L122.7,207.2 L128.1,207.2 L133.5,207.1 L138.9,207.0 L144.3,206.9 L149.7,206.8
		L155.1,206.7 L160.5,206.6 L165.9,206.5 L171.3,206.3 L176.7,206.2 L182.1,206.1 L187.5,206.0 L192.9,205.9
		L198.3,205.7 L203.7,205.6 L209.1,205.4 L214.5,205.3 L219.9,205.1 L225.3,205.0 L230.7,204.8 L236.1,204.7
		L241.5,204.5 L246.9,204.3 L252.3,204.1 L257.7,203.9 L263.1,203.7 L268.5,203.5 L273.9,203.3 L279.3,203.1
		L284.7,202.9 L290.1,202.6 L295.5,202.4 L300.9,202.1 L306.2,201.9 L311.6,201.6 L317.0,201.3 L322.4,201.1
		L327.8,200.8 L333.2,200.5 L338.6,200.1 L344.0,199.8 L349.4,199.5 L354.8,199.1 L360.2,198.8 L365.6,198.4
		L371.0,198.0 L376.4,197.6 L381.8,197.2 L387.2,196.8 L392.6,196.3 L398.0,195.9 L403.4,195.4 L408.8,194.9
		L414.2,194.4 L419.6,193.9 L425.0,193.3 L430.4,192.8 L435.8,192.2 L441.2,191.6 L446.6,191.0 L452.0,190.4
		L457.4,189.7 L462.8,189.0 L468.2,188.3 L473.6,187.6 L479.0,186.8 L484.4,186.1 L489.8,185.3 L495.2,184.4
		L500.6,183.6 L506.0,182.7 L511.4,181.8 L516.8,180.8 L522.2,179.8 L527.6,178.8 L533.0,177.8 L538.4,176.7
		L543.8,175.6 L549.2,174.4 L554.6,173.2 L560.0,172.0 L565.4,170.7 L570.8,169.4  '/></g>
	</g>
<g fill="none" color="white" stroke="rgb(  0, 158, 115)" stroke-width="2.00" stroke-linecap="butt" stroke-linejoin="miter">
</g>
<g fill="none" color="black" stroke="currentColor" stroke-width="2.00" stroke-linecap="butt" stroke-linejoin="miter">
</g>
<g fill="none" color="black" stroke="black" stroke-width="1.00" stroke-linecap="butt" stroke-linejoin="miter">
</g>
<g fill="none" color="black" stroke="currentColor" stroke-width="1.00" stroke-linecap="butt" stroke-linejoin="miter">
	<path stroke='black'  d='M36.3,63.1 L36.3,284.3 L570.8,284.3 L570.8,63.1 L36.3,63.1 Z  '/></g>
<g fill="none" color="black" stroke="currentColor" stroke-width="1.00" stroke-linecap="butt" stroke-linejoin="miter">
</g>
</g>
</svg>

