<?xml version="1.0" encoding="UTF-8" standalone="no"?>
<svg
   width="220.86278mm"
   height="107.89352mm"
   viewBox="0 0 220.86278 107.89352"
   version="1.1"
   id="svg8"
   inkscape:version="1.3 (0e150ed6c4, 2023-07-21)"
   sodipodi:docname="railway_simple_wo_arrows.svg"
   inkscape:export-filename="../png/v0.9/railway_simple_wo_arrows.png"
   inkscape:export-xdpi="96"
   inkscape:export-ydpi="96"
   xmlns:inkscape="http://www.inkscape.org/namespaces/inkscape"
   xmlns:sodipodi="http://sodipodi.sourceforge.net/DTD/sodipodi-0.dtd"
   xmlns="http://www.w3.org/2000/svg"
   xmlns:svg="http://www.w3.org/2000/svg"
   xmlns:rdf="http://www.w3.org/1999/02/22-rdf-syntax-ns#"
   xmlns:cc="http://creativecommons.org/ns#"
   xmlns:dc="http://purl.org/dc/elements/1.1/">
  <defs
     id="defs2">
    <marker
       style="overflow:visible"
       id="marker1604"
       refX="0"
       refY="0"
       orient="auto"
       inkscape:stockid="Arrow2Lend"
       inkscape:isstock="true">
      <path
         transform="matrix(-1.1,0,0,-1.1,-1.1,0)"
         d="M 8.7185878,4.0337352 -2.2072895,0.01601326 8.7185884,-4.0017078 c -1.7454984,2.3720609 -1.7354408,5.6174519 -6e-7,8.035443 z"
         style="fill:#0000ff;fill-opacity:1;fill-rule:evenodd;stroke:#000000;stroke-width:0.625;stroke-linejoin:round;stroke-opacity:1"
         id="path1602" />
    </marker>
    <marker
       style="overflow:visible"
       id="marker1534"
       refX="0"
       refY="0"
       orient="auto"
       inkscape:stockid="Arrow2Lend"
       inkscape:isstock="true">
      <path
         transform="matrix(-1.1,0,0,-1.1,-1.1,0)"
         d="M 8.7185878,4.0337352 -2.2072895,0.01601326 8.7185884,-4.0017078 c -1.7454984,2.3720609 -1.7354408,5.6174519 -6e-7,8.035443 z"
         style="fill:#ff0000;fill-opacity:1;fill-rule:evenodd;stroke:#000000;stroke-width:0.625;stroke-linejoin:round;stroke-opacity:1"
         id="path1532" />
    </marker>
    <marker
       style="overflow:visible"
       id="Arrow1Lend"
       refX="0"
       refY="0"
       orient="auto"
       inkscape:stockid="Arrow1Lend"
       inkscape:isstock="true">
      <path
         transform="matrix(-0.8,0,0,-0.8,-10,0)"
         style="fill:#0000ff;fill-opacity:1;fill-rule:evenodd;stroke:#000000;stroke-width:1pt;stroke-opacity:1"
         d="M 0,0 5,-5 -12.5,0 5,5 Z"
         id="path926" />
    </marker>
    <marker
       style="overflow:visible"
       refX="0"
       refY="0"
       orient="auto"
       inkscape:stockid="Arrow2Lend99348807"
       inkscape:isstock="true"
       inkscape:collect="always"
       id="Arrow2Lend99348807">
      <path
         transform="matrix(-1.1,0,0,-1.1,-1.1,0)"
         d="M 8.7185878,4.0337352 -2.2072895,0.01601326 8.7185884,-4.0017078 c -1.7454984,2.3720609 -1.7354408,5.6174519 -6e-7,8.035443 z"
         style="fill:#008000;fill-opacity:1.0;fill-rule:evenodd;stroke:#000000;stroke-width:0.625;stroke-linejoin:round;stroke-opacity:1.0"
         id="path8197" />
    </marker>
  </defs>
  <sodipodi:namedview
     id="base"
     pagecolor="#ffffff"
     bordercolor="#666666"
     borderopacity="1.0"
     inkscape:pageopacity="0.0"
     inkscape:pageshadow="2"
     inkscape:zoom="1"
     inkscape:cx="410"
     inkscape:cy="225.5"
     inkscape:document-units="mm"
     inkscape:current-layer="layer1"
     inkscape:document-rotation="0"
     showgrid="false"
     inkscape:window-width="1920"
     inkscape:window-height="1047"
     inkscape:window-x="0"
     inkscape:window-y="16"
     inkscape:window-maximized="1"
     lock-margins="true"
     fit-margin-top="5"
     fit-margin-left="5"
     fit-margin-right="5"
     fit-margin-bottom="5"
     inkscape:pagecheckerboard="false"
     inkscape:showpageshadow="2"
     inkscape:deskcolor="#d1d1d1"
     showborder="true" />
  <metadata
     id="metadata5">
    <rdf:RDF>
      <cc:Work
         rdf:about="">
        <dc:format>image/svg+xml</dc:format>
        <dc:type
           rdf:resource="http://purl.org/dc/dcmitype/StillImage" />
      </cc:Work>
    </rdf:RDF>
  </metadata>
  <g
     inkscape:label="Layer 1"
     inkscape:groupmode="layer"
     id="layer1"
     transform="translate(-23.362272,-18.179288)">
    <path
       style="fill:none;stroke:#000000;stroke-width:1;stroke-linecap:butt;stroke-linejoin:miter;stroke-miterlimit:4;stroke-dasharray:none;stroke-opacity:1"
       d="M 240.7694,96.562437 187.34146,122.8041"
       id="path893"
       inkscape:transform-center-x="26.807884"
       inkscape:transform-center-y="13.087016" />
    <path
       style="fill:none;stroke:#000000;stroke-width:1;stroke-linecap:butt;stroke-linejoin:miter;stroke-miterlimit:4;stroke-dasharray:none;stroke-opacity:1"
       d="M 194.73161,122.8041 141.30367,96.562437"
       id="path889"
       inkscape:transform-center-x="26.807884"
       inkscape:transform-center-y="-13.08702" />
    <path
       style="fill:none;stroke:#000000;stroke-width:1;stroke-linecap:butt;stroke-linejoin:miter;stroke-miterlimit:4;stroke-dasharray:none;stroke-opacity:1"
       d="M 171.20842,97.779356 141.30367,58.991579"
       id="path885"
       inkscape:transform-center-x="15.033992"
       inkscape:transform-center-y="-19.403051" />
    <path
       style="fill:none;stroke:#000000;stroke-width:1;stroke-linecap:butt;stroke-linejoin:miter;stroke-miterlimit:4;stroke-dasharray:none;stroke-opacity:1"
       d="M 28.658906,97.660528 H 241.77391"
       id="path56" />
    <path
       style="fill:none;stroke:#000000;stroke-width:1;stroke-linecap:butt;stroke-linejoin:miter;stroke-miterlimit:4;stroke-dasharray:none;stroke-opacity:1"
       d="M 87.475576,97.779356 143.69158,24.864514"
       id="path883"
       inkscape:transform-center-x="-28.26151"
       inkscape:transform-center-y="-36.474645" />
    <path
       style="fill:none;stroke:#000000;stroke-width:1;stroke-linecap:butt;stroke-linejoin:miter;stroke-miterlimit:4;stroke-dasharray:none;stroke-opacity:1"
       d="m 116.40891,61.073152 h 125.365"
       id="path881" />
    <g
       id="g917"
       transform="translate(27.606122,18.514688)" />
    <text
       xml:space="preserve"
       style="font-style:normal;font-weight:normal;font-size:10.5833px;line-height:1.25;font-family:sans-serif;letter-spacing:0px;word-spacing:0px;fill:#000000;fill-opacity:1;stroke:none;stroke-width:0.264583"
       x="28.658905"
       y="97.66053"
       id="text8736"><tspan
         sodipodi:role="line"
         id="tspan8734"
         style="stroke-width:0.264583"
         x="28.658905"
         y="97.66053" /></text>
    <g
       id="g18597">
      <circle
         style="fill:#ff00ff;stroke:#000000;stroke-width:1;stroke-miterlimit:4;stroke-dasharray:none;stop-color:#000000"
         id="circle12"
         cx="28.499321"
         cy="-97.66053"
         r="4.6370492"
         transform="scale(1,-1)" />
      <text
         xml:space="preserve"
         style="font-size:5.64444px;line-height:1.25;font-family:sans-serif;letter-spacing:0px;word-spacing:0px;stroke-width:0.264583"
         x="26.315132"
         y="99.717941"
         id="text17662"><tspan
           sodipodi:role="line"
           id="tspan17660"
           style="font-weight:bold;stroke-width:0.264583"
           x="26.315132"
           y="99.717941">A</tspan></text>
    </g>
    <g
       id="g22028">
      <circle
         style="fill:#ff00ff;stroke:#000000;stroke-width:1;stroke-miterlimit:4;stroke-dasharray:none;stop-color:#000000"
         id="circle38"
         cx="142.74504"
         cy="-26.120165"
         r="4.6370492"
         transform="scale(1,-1)" />
      <text
         xml:space="preserve"
         style="font-size:5.64444px;line-height:1.25;font-family:sans-serif;letter-spacing:0px;word-spacing:0px;stroke-width:0.264583"
         x="140.53329"
         y="28.177574"
         id="text17662-2-6"><tspan
           sodipodi:role="line"
           style="font-weight:bold;stroke-width:0.264583"
           x="140.53329"
           y="28.177574"
           id="tspan19609">B</tspan></text>
    </g>
    <g
       id="g22033">
      <circle
         style="fill:#ff00ff;stroke:#000000;stroke-width:1;stroke-miterlimit:4;stroke-dasharray:none;stop-color:#000000"
         id="circle44"
         cx="239.088"
         cy="-61.073151"
         r="4.6370492"
         transform="scale(1,-1)" />
      <text
         xml:space="preserve"
         style="font-size:5.64444px;line-height:1.25;font-family:sans-serif;letter-spacing:0px;word-spacing:0px;stroke-width:0.264583"
         x="237.05678"
         y="63.127804"
         id="text17662-2-6-9"><tspan
           sodipodi:role="line"
           style="font-weight:bold;stroke-width:0.264583"
           x="237.05678"
           y="63.127804"
           id="tspan19609-2">C</tspan></text>
    </g>
    <g
       id="g22038">
      <circle
         style="fill:#ff00ff;stroke:#000000;stroke-width:1;stroke-miterlimit:4;stroke-dasharray:none;stop-color:#000000"
         id="circle46"
         cx="239.088"
         cy="-97.66053"
         r="4.6370492"
         transform="scale(1,-1)" />
      <text
         xml:space="preserve"
         style="font-size:5.64444px;line-height:1.25;font-family:sans-serif;letter-spacing:0px;word-spacing:0px;stroke-width:0.264583"
         x="236.63371"
         y="99.717941"
         id="text17662-2-6-6"><tspan
           sodipodi:role="line"
           style="font-weight:bold;stroke-width:0.264583"
           x="236.63371"
           y="99.717941"
           id="tspan19609-6">D</tspan></text>
    </g>
    <g
       id="g38807-9"
       transform="translate(54.752647,-36.587379)" />
    <g
       id="g36934">
      <g
         id="g1482"
         transform="translate(33.633865,17.776409)">
        <g
           id="g1459"
           transform="translate(-6.0277428,2.3257797)">
          <g
             id="g909"
             transform="translate(0,-1.5875)">
            <circle
               style="fill:#808080;fill-opacity:1;stroke:#000000;stroke-width:0.499999;stroke-miterlimit:4;stroke-dasharray:none;stop-color:#000000"
               id="path897"
               cx="13.163494"
               cy="73.727669"
               r="2.3787501" />
            <circle
               style="fill:#808080;fill-opacity:1;stroke:#000000;stroke-width:0.499999;stroke-miterlimit:4;stroke-dasharray:none;stop-color:#000000"
               id="circle899"
               cx="19.337109"
               cy="73.727669"
               r="2.3787501" />
            <circle
               style="fill:#808080;fill-opacity:1;stroke:#000000;stroke-width:0.499999;stroke-miterlimit:4;stroke-dasharray:none;stop-color:#000000"
               id="circle901"
               cx="25.510725"
               cy="73.727669"
               r="2.3787501" />
            <circle
               style="fill:#808080;fill-opacity:1;stroke:#000000;stroke-width:0.499999;stroke-miterlimit:4;stroke-dasharray:none;stop-color:#000000"
               id="circle903"
               cx="31.684338"
               cy="73.727669"
               r="2.3787501" />
          </g>
          <rect
             style="fill:#008000;stroke:#000000;stroke-width:0.5;stroke-miterlimit:4;stroke-dasharray:none;stop-color:#000000"
             id="rect895"
             width="26.195139"
             height="11.449116"
             x="9.3263464"
             y="59.190891" />
        </g>
        <path
           style="fill:#008000;stroke:#000000;stroke-width:0.5;stroke-linecap:butt;stroke-linejoin:miter;stroke-miterlimit:4;stroke-dasharray:none;stroke-opacity:1;marker-end:url(#Arrow2Lend99348807)"
           d="m 30.669468,67.241229 h 27.67002"
           id="path921" />
      </g>
      <text
         xml:space="preserve"
         style="font-size:8.46667px;line-height:1.25;font-family:sans-serif;letter-spacing:0px;word-spacing:0px;fill:#ffffff;stroke-width:0.264583"
         x="46.656601"
         y="88.099625"
         id="text17662-2-6-4-7"><tspan
           sodipodi:role="line"
           style="font-weight:bold;font-size:8.46667px;fill:#ffffff;stroke-width:0.264583"
           x="46.656601"
           y="88.099625"
           id="tspan19609-9-1">G</tspan></text>
    </g>
    <g
       id="g37482">
      <g
         id="g1530"
         transform="matrix(-1,0,0,1,217.01443,17.776409)">
        <g
           id="g1526"
           transform="translate(-12.377744,2.3257797)">
          <g
             id="g1522"
             transform="translate(0,-1.5875)" />
          <g
             id="g1713">
            <g
               id="g1696"
               transform="translate(-4.9166661e-7,-1.5875)">
              <circle
                 style="fill:#808080;fill-opacity:1;stroke:#000000;stroke-width:0.499999;stroke-miterlimit:4;stroke-dasharray:none;stop-color:#000000"
                 id="circle1514"
                 cx="13.057671"
                 cy="73.727669"
                 r="2.3787501" />
              <circle
                 style="fill:#808080;fill-opacity:1;stroke:#000000;stroke-width:0.499999;stroke-miterlimit:4;stroke-dasharray:none;stop-color:#000000"
                 id="circle1516"
                 cx="19.30184"
                 cy="73.727669"
                 r="2.3787501" />
              <circle
                 style="fill:#808080;fill-opacity:1;stroke:#000000;stroke-width:0.499999;stroke-miterlimit:4;stroke-dasharray:none;stop-color:#000000"
                 id="circle1518"
                 cx="25.546011"
                 cy="73.727669"
                 r="2.3787501" />
              <circle
                 style="fill:#808080;fill-opacity:1;stroke:#000000;stroke-width:0.499999;stroke-miterlimit:4;stroke-dasharray:none;stop-color:#000000"
                 id="circle1520"
                 cx="31.790161"
                 cy="73.727669"
                 r="2.3787501" />
              <circle
                 style="fill:#808080;fill-opacity:1;stroke:#000000;stroke-width:0.499999;stroke-miterlimit:4;stroke-dasharray:none;stop-color:#000000"
                 id="circle1686"
                 cx="6.813498"
                 cy="73.727669"
                 r="2.3787501" />
              <circle
                 style="fill:#808080;fill-opacity:1;stroke:#000000;stroke-width:0.499999;stroke-miterlimit:4;stroke-dasharray:none;stop-color:#000000"
                 id="circle1688"
                 cx="38.034344"
                 cy="73.727669"
                 r="2.3787501" />
            </g>
            <rect
               style="fill:#ff5555;stroke:#000000;stroke-width:0.5;stroke-miterlimit:4;stroke-dasharray:none;stop-color:#000000"
               id="rect1524"
               width="39.292709"
               height="11.449116"
               x="2.7775617"
               y="59.190891" />
          </g>
        </g>
        <path
           style="fill:#ff0000;stroke:#000000;stroke-width:0.5;stroke-linecap:butt;stroke-linejoin:miter;stroke-miterlimit:4;stroke-dasharray:none;stroke-opacity:1;marker-end:url(#marker1534)"
           d="M 30.669468,67.241229 H 42.971066"
           id="path1528" />
      </g>
      <text
         xml:space="preserve"
         style="font-size:8.46667px;line-height:1.25;font-family:sans-serif;letter-spacing:0px;word-spacing:0px;fill:#ffffff;stroke-width:0.264583"
         x="203.40465"
         y="88.103752"
         id="text17662-2-6-4-7-2"><tspan
           sodipodi:role="line"
           style="font-weight:bold;font-size:8.46667px;fill:#ffffff;stroke-width:0.264583"
           x="203.40465"
           y="88.103752"
           id="tspan19609-9-1-2">R</tspan></text>
    </g>
    <g
       id="g37768"
       transform="rotate(-52.4,120.25252,37.088743)">
      <g
         id="g1600"
         transform="rotate(0.059609,29639.366,95987.766)">
        <g
           id="g1596"
           transform="translate(-6.0277428,2.3257797)">
          <g
             id="g1592"
             transform="translate(0,-1.5875)">
            <circle
               style="fill:#808080;fill-opacity:1;stroke:#000000;stroke-width:0.499999;stroke-miterlimit:4;stroke-dasharray:none;stop-color:#000000"
               id="circle1584"
               cx="13.163494"
               cy="73.727669"
               r="2.3787501" />
            <circle
               style="fill:#808080;fill-opacity:1;stroke:#000000;stroke-width:0.499999;stroke-miterlimit:4;stroke-dasharray:none;stop-color:#000000"
               id="circle1586"
               cx="19.337109"
               cy="73.727669"
               r="2.3787501" />
            <circle
               style="fill:#808080;fill-opacity:1;stroke:#000000;stroke-width:0.499999;stroke-miterlimit:4;stroke-dasharray:none;stop-color:#000000"
               id="circle1588"
               cx="25.510725"
               cy="73.727669"
               r="2.3787501" />
            <circle
               style="fill:#808080;fill-opacity:1;stroke:#000000;stroke-width:0.499999;stroke-miterlimit:4;stroke-dasharray:none;stop-color:#000000"
               id="circle1590"
               cx="31.684338"
               cy="73.727669"
               r="2.3787501" />
          </g>
          <rect
             style="fill:#0000ff;stroke:#000000;stroke-width:0.5;stroke-miterlimit:4;stroke-dasharray:none;stop-color:#000000"
             id="rect1594"
             width="26.195139"
             height="11.449116"
             x="9.3263464"
             y="59.190891" />
        </g>
        <path
           style="fill:#0000ff;stroke:#000000;stroke-width:0.5;stroke-linecap:butt;stroke-linejoin:miter;stroke-miterlimit:4;stroke-dasharray:none;stroke-opacity:1;marker-end:url(#marker1604)"
           d="M 30.669468,67.241229 H 42.971066"
           id="path1598" />
      </g>
      <text
         xml:space="preserve"
         style="font-size:8.46667px;line-height:1.25;font-family:sans-serif;letter-spacing:0px;word-spacing:0px;fill:#ffffff;stroke-width:0.264583"
         x="112.88771"
         y="39.560314"
         id="text17662-2-6-4-7-6"><tspan
           sodipodi:role="line"
           style="font-weight:bold;font-size:8.46667px;fill:#ffffff;stroke-width:0.264583"
           x="112.88771"
           y="39.560314"
           id="tspan19609-9-1-1">B</tspan></text>
    </g>
    <g
       id="g530-6"
       transform="rotate(-52,64.457011,51.189342)">
      <g
         id="g38807-2">
        <circle
           style="fill:#006699;stroke:#000000;stroke-width:1;stroke-miterlimit:4;stroke-dasharray:none;stop-color:#000000"
           id="circle32-61"
           cx="87.992393"
           cy="-97.66053"
           r="4.6370492"
           transform="scale(1,-1)" />
      </g>
      <path
         style="fill:#000000;stroke:none;stroke-width:1.076;stroke-miterlimit:4;stroke-dasharray:none;stop-color:#000000"
         id="circle32-0-3-8"
         transform="matrix(0,-1,-1,0,0,0)"
         sodipodi:type="arc"
         sodipodi:cx="-97.716774"
         sodipodi:cy="-87.846802"
         sodipodi:rx="4.3093057"
         sodipodi:ry="4.3093057"
         sodipodi:start="6.2638167"
         sodipodi:end="3.159155"
         sodipodi:arc-type="chord"
         d="m -93.408277,-87.930262 a 4.3093057,4.3093057 0 0 1 -2.127557,3.800127 4.3093057,4.3093057 0 0 1 -4.355163,0.0039 4.3093057,4.3093057 0 0 1 -2.134423,-3.796278 z"
         sodipodi:open="true" />
    </g>
    <g
       id="g530-0"
       transform="translate(83.202426,-0.01027679)">
      <g
         id="g38807-93">
        <circle
           style="fill:#006699;stroke:#000000;stroke-width:1;stroke-miterlimit:4;stroke-dasharray:none;stop-color:#000000"
           id="circle32-6"
           cx="87.992393"
           cy="-97.66053"
           r="4.6370492"
           transform="scale(1,-1)" />
      </g>
      <path
         style="fill:#000000;stroke:none;stroke-width:1.076;stroke-miterlimit:4;stroke-dasharray:none;stop-color:#000000"
         id="circle32-0-3-0"
         transform="matrix(0,-1,-1,0,0,0)"
         sodipodi:type="arc"
         sodipodi:cx="-97.716774"
         sodipodi:cy="-87.846802"
         sodipodi:rx="4.3093057"
         sodipodi:ry="4.3093057"
         sodipodi:start="6.2638167"
         sodipodi:end="3.159155"
         sodipodi:arc-type="chord"
         d="m -93.408277,-87.930262 a 4.3093057,4.3093057 0 0 1 -2.127557,3.800127 4.3093057,4.3093057 0 0 1 -4.355163,0.0039 4.3093057,4.3093057 0 0 1 -2.134423,-3.796278 z"
         sodipodi:open="true" />
    </g>
    <g
       id="g585">
      <circle
         style="fill:#006699;stroke:#000000;stroke-width:1;stroke-miterlimit:4;stroke-dasharray:none;stop-color:#000000"
         id="circle32-1-1"
         cx="142.74504"
         cy="-97.650253"
         r="4.6370492"
         transform="scale(1,-1)" />
      <path
         style="fill:#000000;stroke:none;stroke-width:1.076;stroke-miterlimit:4;stroke-dasharray:none;stop-color:#000000"
         id="circle32-0-3-6"
         transform="matrix(0,-1,-1,0,0,0)"
         sodipodi:type="arc"
         sodipodi:cx="-97.560852"
         sodipodi:cy="-142.5899"
         sodipodi:rx="4.3093057"
         sodipodi:ry="4.3093057"
         sodipodi:start="6.2638167"
         sodipodi:end="3.159155"
         sodipodi:arc-type="chord"
         d="m -93.252355,-142.67336 a 4.3093057,4.3093057 0 0 1 -2.127557,3.80012 4.3093057,4.3093057 0 0 1 -4.355163,0.004 4.3093057,4.3093057 0 0 1 -2.134415,-3.79628 z"
         sodipodi:open="true" />
      <text
         xml:space="preserve"
         style="font-size:5.64444px;line-height:1.25;font-family:sans-serif;letter-spacing:0px;word-spacing:0px;fill:#ffffff;stroke-width:0.264583"
         x="140.80339"
         y="99.744865"
         id="text17662-2-6-4-5-5"><tspan
           sodipodi:role="line"
           style="font-weight:bold;fill:#ffffff;stroke-width:0.264583"
           x="140.80339"
           y="99.744865"
           id="tspan19609-9-0-9">1</tspan></text>
    </g>
    <g
       id="g585-7"
       transform="translate(0.01740874,-36.393775)">
      <circle
         style="fill:#006699;stroke:#000000;stroke-width:1;stroke-miterlimit:4;stroke-dasharray:none;stop-color:#000000"
         id="circle32-1-1-5"
         cx="142.74504"
         cy="-97.650253"
         r="4.6370492"
         transform="scale(1,-1)" />
      <path
         style="fill:#000000;stroke:none;stroke-width:1.076;stroke-miterlimit:4;stroke-dasharray:none;stop-color:#000000"
         id="circle32-0-3-6-3"
         transform="matrix(0,-1,-1,0,0,0)"
         sodipodi:type="arc"
         sodipodi:cx="-97.560852"
         sodipodi:cy="-142.5899"
         sodipodi:rx="4.3093057"
         sodipodi:ry="4.3093057"
         sodipodi:start="6.2638167"
         sodipodi:end="3.159155"
         sodipodi:arc-type="chord"
         d="m -93.252355,-142.67336 a 4.3093057,4.3093057 0 0 1 -2.127557,3.80012 4.3093057,4.3093057 0 0 1 -4.355163,0.004 4.3093057,4.3093057 0 0 1 -2.134415,-3.79628 z"
         sodipodi:open="true" />
      <text
         xml:space="preserve"
         style="font-size:5.64444px;line-height:1.25;font-family:sans-serif;letter-spacing:0px;word-spacing:0px;fill:#ffffff;stroke-width:0.264583"
         x="140.80339"
         y="99.744865"
         id="text17662-2-6-4-5-5-5"><tspan
           sodipodi:role="line"
           style="font-weight:bold;fill:#ffffff;stroke-width:0.264583"
           x="140.80339"
           y="99.744865"
           id="tspan19609-9-0-9-6">2</tspan></text>
    </g>
    <g
       id="g585-7-2"
       transform="translate(49.054717,22.794017)">
      <circle
         style="fill:#006699;stroke:#000000;stroke-width:1;stroke-miterlimit:4;stroke-dasharray:none;stop-color:#000000"
         id="circle32-1-1-5-9"
         cx="142.74504"
         cy="-97.650253"
         r="4.6370492"
         transform="scale(1,-1)" />
      <path
         style="fill:#000000;stroke:none;stroke-width:1.076;stroke-miterlimit:4;stroke-dasharray:none;stop-color:#000000"
         id="circle32-0-3-6-3-1"
         transform="matrix(0,-1,-1,0,0,0)"
         sodipodi:type="arc"
         sodipodi:cx="-97.560852"
         sodipodi:cy="-142.5899"
         sodipodi:rx="4.3093057"
         sodipodi:ry="4.3093057"
         sodipodi:start="6.2638167"
         sodipodi:end="3.159155"
         sodipodi:arc-type="chord"
         d="m -93.252355,-142.67336 a 4.3093057,4.3093057 0 0 1 -2.127557,3.80012 4.3093057,4.3093057 0 0 1 -4.355163,0.004 4.3093057,4.3093057 0 0 1 -2.134415,-3.79628 z"
         sodipodi:open="true" />
      <text
         xml:space="preserve"
         style="font-size:5.64444px;line-height:1.25;font-family:sans-serif;letter-spacing:0px;word-spacing:0px;fill:#ffffff;stroke-width:0.264583"
         x="140.80339"
         y="99.744865"
         id="text17662-2-6-4-5-5-5-2"><tspan
           sodipodi:role="line"
           style="font-weight:bold;fill:#ffffff;stroke-width:0.264583"
           x="140.80339"
           y="99.744865"
           id="tspan19609-9-0-9-6-7">3</tspan></text>
    </g>
    <g
       id="g530">
      <g
         id="g38807">
        <circle
           style="fill:#006699;stroke:#000000;stroke-width:1;stroke-miterlimit:4;stroke-dasharray:none;stop-color:#000000"
           id="circle32"
           cx="87.992393"
           cy="-97.66053"
           r="4.6370492"
           transform="scale(1,-1)" />
      </g>
      <path
         style="fill:#000000;stroke:none;stroke-width:1.076;stroke-miterlimit:4;stroke-dasharray:none;stop-color:#000000"
         id="circle32-0-3"
         transform="matrix(0,-1,-1,0,0,0)"
         sodipodi:type="arc"
         sodipodi:cx="-97.716774"
         sodipodi:cy="-87.846802"
         sodipodi:rx="4.3093057"
         sodipodi:ry="4.3093057"
         sodipodi:start="6.2638167"
         sodipodi:end="3.159155"
         sodipodi:arc-type="chord"
         d="m -93.408277,-87.930262 a 4.3093057,4.3093057 0 0 1 -2.127557,3.800127 4.3093057,4.3093057 0 0 1 -4.355163,0.0039 4.3093057,4.3093057 0 0 1 -2.134423,-3.796278 z"
         sodipodi:open="true" />
    </g>
  </g>
</svg>
