<?xml version="1.0" encoding="UTF-8" standalone="no"?>
<svg
   width="111mm"
   height="18.145235mm"
   viewBox="0 0 111 18.145234"
   version="1.1"
   id="svg8"
   inkscape:version="1.2.2 (b0a8486541, 2022-12-01)"
   sodipodi:docname="rail_dyn_3.svg"
   inkscape:export-filename="../pdf/v0.9/rail_dyn_3.pdf"
   inkscape:export-xdpi="96"
   inkscape:export-ydpi="96"
   xmlns:inkscape="http://www.inkscape.org/namespaces/inkscape"
   xmlns:sodipodi="http://sodipodi.sourceforge.net/DTD/sodipodi-0.dtd"
   xmlns="http://www.w3.org/2000/svg"
   xmlns:svg="http://www.w3.org/2000/svg"
   xmlns:rdf="http://www.w3.org/1999/02/22-rdf-syntax-ns#"
   xmlns:cc="http://creativecommons.org/ns#"
   xmlns:dc="http://purl.org/dc/elements/1.1/">
  <defs
     id="defs2">
    <marker
       style="overflow:visible"
       id="marker1604"
       refX="0"
       refY="0"
       orient="auto"
       inkscape:stockid="Arrow2Lend"
       inkscape:isstock="true">
      <path
         transform="matrix(-1.1,0,0,-1.1,-1.1,0)"
         d="M 8.7185878,4.0337352 -2.2072895,0.01601326 8.7185884,-4.0017078 c -1.7454984,2.3720609 -1.7354408,5.6174519 -6e-7,8.035443 z"
         style="fill:#0000ff;fill-opacity:1;fill-rule:evenodd;stroke:#000000;stroke-width:0.625;stroke-linejoin:round;stroke-opacity:1"
         id="path1602" />
    </marker>
    <marker
       style="overflow:visible"
       id="marker1534"
       refX="0"
       refY="0"
       orient="auto"
       inkscape:stockid="Arrow2Lend"
       inkscape:isstock="true">
      <path
         transform="matrix(-1.1,0,0,-1.1,-1.1,0)"
         d="M 8.7185878,4.0337352 -2.2072895,0.01601326 8.7185884,-4.0017078 c -1.7454984,2.3720609 -1.7354408,5.6174519 -6e-7,8.035443 z"
         style="fill:#ff0000;fill-opacity:1;fill-rule:evenodd;stroke:#000000;stroke-width:0.625;stroke-linejoin:round;stroke-opacity:1"
         id="path1532" />
    </marker>
    <marker
       style="overflow:visible"
       id="Arrow1Lend"
       refX="0"
       refY="0"
       orient="auto"
       inkscape:stockid="Arrow1Lend"
       inkscape:isstock="true">
      <path
         transform="matrix(-0.8,0,0,-0.8,-10,0)"
         style="fill:#0000ff;fill-opacity:1;fill-rule:evenodd;stroke:#000000;stroke-width:1pt;stroke-opacity:1"
         d="M 0,0 5,-5 -12.5,0 5,5 Z"
         id="path926" />
    </marker>
    <marker
       style="overflow:visible"
       id="Arrow2Lend"
       refX="0"
       refY="0"
       orient="auto"
       inkscape:stockid="Arrow2Lend"
       inkscape:isstock="true"
       inkscape:collect="always">
      <path
         transform="matrix(-1.1,0,0,-1.1,-1.1,0)"
         d="M 8.7185878,4.0337352 -2.2072895,0.01601326 8.7185884,-4.0017078 c -1.7454984,2.3720609 -1.7354408,5.6174519 -6e-7,8.035443 z"
         style="fill:#0000ff;fill-opacity:1;fill-rule:evenodd;stroke:#000000;stroke-width:0.625;stroke-linejoin:round;stroke-opacity:1"
         id="path944" />
    </marker>
  </defs>
  <sodipodi:namedview
     id="base"
     pagecolor="#ffffff"
     bordercolor="#666666"
     borderopacity="1.0"
     inkscape:pageopacity="0.0"
     inkscape:pageshadow="2"
     inkscape:zoom="2.0000001"
     inkscape:cx="209.24999"
     inkscape:cy="-1.4999999"
     inkscape:document-units="mm"
     inkscape:current-layer="layer1"
     inkscape:document-rotation="0"
     showgrid="false"
     inkscape:window-width="1920"
     inkscape:window-height="1047"
     inkscape:window-x="0"
     inkscape:window-y="16"
     inkscape:window-maximized="1"
     lock-margins="true"
     fit-margin-top="5"
     fit-margin-left="5"
     fit-margin-right="5"
     fit-margin-bottom="5"
     inkscape:pagecheckerboard="0"
     inkscape:showpageshadow="2"
     inkscape:deskcolor="#d1d1d1" />
  <metadata
     id="metadata5">
    <rdf:RDF>
      <cc:Work
         rdf:about="">
        <dc:format>image/svg+xml</dc:format>
        <dc:type
           rdf:resource="http://purl.org/dc/dcmitype/StillImage" />
      </cc:Work>
    </rdf:RDF>
  </metadata>
  <g
     inkscape:label="Layer 1"
     inkscape:groupmode="layer"
     id="layer1"
     transform="translate(-108.3623,-89.515353)">
    <path
       style="fill:none;stroke:#000000;stroke-width:2;stroke-linecap:butt;stroke-linejoin:miter;stroke-miterlimit:4;stroke-dasharray:none;stroke-dashoffset:0;stroke-opacity:1"
       d="m 126.9146,102.66059 h 81.03314"
       id="path4097" />
    <g
       id="g917"
       transform="translate(46.690151,23.514747)" />
    <text
       xml:space="preserve"
       style="font-style:normal;font-weight:normal;font-size:10.5833px;line-height:1.25;font-family:sans-serif;letter-spacing:0px;word-spacing:0px;fill:#000000;fill-opacity:1;stroke:none;stroke-width:0.264583"
       x="47.742935"
       y="102.66059"
       id="text8736"><tspan
         sodipodi:role="line"
         id="tspan8734"
         style="stroke-width:0.264583"
         x="47.742935"
         y="102.66059" /></text>
    <g
       id="g39196-7"
       transform="matrix(0.97044474,0,0,0.97044474,-11.079873,43.392467)"
       style="stroke-width:1.03046">
      <circle
         style="fill:#006699;stroke:#000000;stroke-width:1.03046;stroke-miterlimit:4;stroke-dasharray:none;stop-color:#000000"
         id="circle32-1-1"
         cx="87.992393"
         cy="-97.66053"
         r="4.6370492"
         transform="matrix(1,0,0,-1,54.752648,-36.587378)" />
      <path
         style="fill:#000000;stroke:none;stroke-width:1.10877;stroke-miterlimit:4;stroke-dasharray:none;stop-color:#000000"
         id="circle32-0-7-1"
         transform="matrix(0,-1,-1,0,54.752648,-36.587378)"
         sodipodi:type="arc"
         sodipodi:cx="-97.66053"
         sodipodi:cy="-88.142128"
         sodipodi:rx="4.3093057"
         sodipodi:ry="4.3093057"
         sodipodi:start="0.52359878"
         sodipodi:end="2.6179939"
         sodipodi:arc-type="slice"
         d="m -93.928562,-85.987475 a 4.3093057,4.3093057 0 0 1 -3.731968,2.154653 4.3093057,4.3093057 0 0 1 -3.73197,-2.154653 l 3.73197,-2.154653 z" />
    </g>
    <g
       id="g38807-9"
       transform="translate(73.836676,-31.58732)" />
    <g
       id="g16214"
       transform="matrix(0.97044474,0,0,0.97044474,68.920131,43.392467)"
       style="stroke-width:1.03046">
      <circle
         style="fill:#006699;stroke:#000000;stroke-width:1.03046;stroke-miterlimit:4;stroke-dasharray:none;stop-color:#000000"
         id="circle16206"
         cx="87.992393"
         cy="-97.66053"
         r="4.6370492"
         transform="matrix(1,0,0,-1,54.752648,-36.587378)" />
      <path
         style="fill:#000000;stroke:none;stroke-width:1.10877;stroke-miterlimit:4;stroke-dasharray:none;stop-color:#000000"
         id="path16208"
         transform="matrix(0,-1,-1,0,54.752648,-36.587378)"
         sodipodi:type="arc"
         sodipodi:cx="-97.66053"
         sodipodi:cy="-88.142128"
         sodipodi:rx="4.3093057"
         sodipodi:ry="4.3093057"
         sodipodi:start="0.52359878"
         sodipodi:end="2.6179939"
         sodipodi:arc-type="slice"
         d="m -93.928562,-85.987475 a 4.3093057,4.3093057 0 0 1 -3.731968,2.154653 4.3093057,4.3093057 0 0 1 -3.73197,-2.154653 l 3.73197,-2.154653 z" />
    </g>
    <g
       id="g6475"
       transform="translate(75.908404,5.000059)">
      <g
         id="g4217"
         transform="matrix(0.71973423,0,0,0.70990911,86.761358,28.472702)"
         style="stroke-width:1.39898">
        <g
           id="g4211"
           transform="translate(33.633865,17.776409)"
           style="stroke-width:1.39898">
          <g
             id="g4207"
             transform="translate(-6.0277428,2.3257797)"
             style="stroke-width:1.39898">
            <g
               id="g4203"
               transform="translate(0,-1.5875)"
               style="stroke-width:1.39898">
              <circle
                 style="fill:#808080;fill-opacity:1;stroke:#000000;stroke-width:0.69949;stroke-miterlimit:4;stroke-dasharray:none;stop-color:#000000"
                 id="circle4195"
                 cx="13.163494"
                 cy="73.727669"
                 r="2.3787501" />
              <circle
                 style="fill:#808080;fill-opacity:1;stroke:#000000;stroke-width:0.69949;stroke-miterlimit:4;stroke-dasharray:none;stop-color:#000000"
                 id="circle4197"
                 cx="19.337109"
                 cy="73.727669"
                 r="2.3787501" />
              <circle
                 style="fill:#808080;fill-opacity:1;stroke:#000000;stroke-width:0.69949;stroke-miterlimit:4;stroke-dasharray:none;stop-color:#000000"
                 id="circle4199"
                 cx="25.510725"
                 cy="73.727669"
                 r="2.3787501" />
              <circle
                 style="fill:#808080;fill-opacity:1;stroke:#000000;stroke-width:0.69949;stroke-miterlimit:4;stroke-dasharray:none;stop-color:#000000"
                 id="circle4201"
                 cx="31.684338"
                 cy="73.727669"
                 r="2.3787501" />
            </g>
            <rect
               style="fill:#0000ff;stroke:#000000;stroke-width:0.699492;stroke-miterlimit:4;stroke-dasharray:none;stop-color:#000000"
               id="rect4205"
               width="26.195139"
               height="11.449116"
               x="9.3263464"
               y="59.190891" />
          </g>
          <path
             style="fill:#0000ff;stroke:#000000;stroke-width:0.699495;stroke-linecap:butt;stroke-linejoin:miter;stroke-miterlimit:4;stroke-dasharray:none;stroke-opacity:1;marker-end:url(#Arrow2Lend)"
             d="M 30.669468,67.23367 H 43.83432"
             id="path4209" />
        </g>
      </g>
    </g>
  </g>
</svg>
