$N$	$s_d$	Result	Time	(dReal)	(Ratio)
3	1	\texttt{sat}	0.15	26	172
3	0.5	\texttt{sat}	0.22	26	119
3	0.25	\texttt{sat}	0.13	26	197
6	1	\texttt{sat}	0.88	50000	56804
6	0.5	\texttt{sat}	0.94	50000	53200
6	0.25	\texttt{sat}	1.51	50000	33101
9	1	\texttt{sat}	2.98	$\times$	$\times$
9	0.5	\texttt{sat}	3.98	$\times$	$\times$
9	0.25	\texttt{sat}	9.20	$\times$	$\times$
12	1	\texttt{sat}	4.71	$\times$	$\times$
12	0.5	\texttt{sat}	5.46	$\times$	$\times$
12	0.25	\texttt{sat}	7.12	$\times$	$\times$
16	1	\texttt{sat}	6.20	$\times$	$\times$
16	0.5	\texttt{sat}	7.32	$\times$	$\times$
16	0.25	\texttt{sat}	19.49	$\times$	$\times$
