$N$	$s_d$	Result	Time	(dReal)	(Ratio)
3	1	\texttt{unsat}	0.14	5.8	41
3	0.5	\texttt{unsat}	0.20	5.8	29
3	0.25	\texttt{unsat}	0.31	5.8	19
4	1	\texttt{unsat}	0.42	102	244
4	0.5	\texttt{unsat}	0.88	102	116
4	0.25	\texttt{unsat}	2.87	102	36
5	1	\texttt{sat}	0.52	406	774
5	0.5	\texttt{sat}	0.56	406	731
5	0.25	\texttt{sat}	0.69	406	589
6	1	\texttt{sat}	0.65	5428	8296
6	0.5	\texttt{sat}	0.90	5428	6020
6	0.25	\texttt{sat}	1.19	5428	4546
8	1	\texttt{sat}	1.00	$\times$	$\times$
8	0.5	\texttt{sat}	0.70	$\times$	$\times$
8	0.25	\texttt{sat}	1.07	$\times$	$\times$
