$S$	$N$	Result	Time	(dReal)	(Ratio)
50	4	\texttt{unsat}	0.11	1.77	15.6
50	6	\texttt{unsat}	0.22	8.05	37
50	8	\texttt{unsat}	0.29	37.5	131
50	10	\texttt{unsat}	0.45	151	338
1	4	\texttt{unsat}	0.68	1.9	2.8
1	6	\texttt{unsat}	1.35	7.9	5.9
1	8	\texttt{unsat}	1.63	33.3	20
1	10	\texttt{unsat}	2.83	142	50
