$S$	$N$	Result	Time	(dReal)	(Ratio)
50	4	\texttt{unsat}	0.11	1.81	16.1
50	6	\texttt{unsat}	0.23	7.45	32.1
50	8	\texttt{unsat}	0.29	35.1	120
50	10	\texttt{unsat}	0.44	141	319
1	4	\texttt{unsat}	0.68	1.78	2.6
1	6	\texttt{unsat}	1.43	8.85	6.2
1	8	\texttt{unsat}	1.85	44.5	24
1	10	\texttt{unsat}	2.75	162	59
